//Index   Level   Count   Option1   Option2   Option3   NewOption   Comment


//7176      0       50      0         0         0         0           //Antidote
//7171      1       50      0         0         0         0           //Large Healing Potion

//6155      1       1       0         0         0         0           //Orb of Summoning
//6155      2       1       0         0         0         0           //Orb of Summoning
//6155      3       1       0         0         0         0           //Orb of Summoning
//6155      4       1       0         0         0         0           //Orb of Summoning
//2060      2       255     0         0         0         0           //Serpent bow
//3598      3       255     0         0         0         0           //Set Guardian
//4110      3       255     0         0         0         0           //Set Guardian
//4622      3       255     0         0         0         0           //Set Guardian
//5134      3       255     0         0         0         0           //Set Guardian
//5646      3       255     0         0         0         0           //Set Guardian
//6685      0       1       0         0         0         0           //Armor of Guardsman
//2055      0       255     0         0         0         0           //Bolt
//2055      1       255     0         0         0         0           //Bolt
//2055      2       255     0         0         0         0           //Bolt
//2055      3       255     0         0         0         0           //Bolt
//2063      0       255     0         0         0         0           //Arrow
//2063      3       255     0         0         0         0           //Arrow
//
//3702      3       255     0         0         0         0           //Set Legendary 
//4214      3       255     0         0         0         0           //Set Legendary 
//4726      3       255     0         0         0         0           //Set Legendary 
//5238      3       255     0         0         0         0           //Set Legendary 
//5750      3       255     0         0         0         0           //Set Legendary 
//1052      3       255     0         0         0         0           //Elemental Rune Mace   
//


3598      5       255     0         0         0         0           //Set Guardian
3702      5       255     0         0         0         0           //Set Legendary
3597      5       255     0         0         0         0           //Spirit Helm 
3703      5       255     0         0         0         0           //Kanaz Hood

4110      5       255     0         0         0         0           //Set Guardian
4214      5       255     0         0         0         0           //Set Legendary
4109      5       255     0         0         0         0           //Spirit Armor
4215      5       255     0         0         0         0           //Kanaz Armor

4622      5       255     0         0         0         0           //Set Guardian
4726      5       255     0         0         0         0           //Set Legendary 
4621      5       255     0         0         0         0           //Spirit Pants 
4727      5       255     0         0         0         0           //Kanaz Pants

5134      5       255     0         0         0         0           //Set Guardian
5238      5       255     0         0         0         0           //Set Legendary 
5133      5       255     0         0         0         0           //Spirit Gloves
5239      5       255     0         0         0         0           //Kanaz Gloves 

5646      5       255     0         0         0         0           //Set Guardian
5750      5       255     0         0         0         0           //Set Legendary 
5645      5       255     0         0         0         0           //Spirit Boots 
5751      5       255     0         0         0         0           //Kanaz Boots

1052      5       255     0         0         0         0           //Elemental Rune Mace 
2060      5       255     0         0         0         0           //Serpent bow

7688      0       1       0         0         0         0           //Evil Spirit
7717      0       1       0         0         0         0           //Magic Arrow Act 

//6188      0       1       0         0         0         0           //Crystal of Destruction
//6158      0       1       0         0         0         0           //well lif orb
6189      0       1       0         0         0         0           //Crystal of Multi-Shot 
6190      0       1       0         0         0         0           //Crystal of Recovery   

6152      0       1       0         0         0         0           //Healing Orb
6153      0       1       0         0         0         0           //Orb of Greater Fortitude
6154      0       1       0         0         0         0           //Orb of Greater Damage
6155      0       1       0         0         0         0           //Orb of Summoning
2055      0       255     0         0         0         0           //Bolt
2063      0       255     0         0         0         0           //Arrow
2080      5       255     0         0         0         0           //quiver combat
2080      5       255     0         0         0         0           //quiver combatt

7169      0       3         0         0         0         0           //Small Healing Potion
7174      0       50        0         0         0         0           //Large Mana Potion

7174      0       100       0         0         0         0           //Large Mana Potion
7168      0       50        0         0         0         0           //Apple
7176      0       3         0         0         0         0           //Antidote
7176      0       50        0         0         0         0           //Antidote
7176      0       100       0         0         0         0           //Antidote
7171      0       50        0         0         0         0           //Large Healing Potion

7171      0       100       0         0         0         0           //Large Healing Potion
7168      1       50        0         0         0         0           //Apple

6656      0       255       0         0         0         0           //Guardian Angel
6657      0       255       0         0         0         0           //Satan Imp
//6659      0       255       0         0         0         0           //Dinorant

12,15      0       10     0         0         0         0           //joias
14,13      0       10     0         0         0         0           //joias
14,14      0       10     0         0         0         0           //joias
14,22      0       10     0         0         0         0           //joias

end