//Index   Level   Count   Option1   Option2   Option3   NewOption   Comment
 
7682      0       1       0         0         0         0           //Scroll of Lighting  
7688      0       1       0         0         0         0           //Scroll of Evil Spirit
7689      0       1       0         0         0         0           //Scroll of Hellfire  
7691      0       1       0         0         0         0           //Scroll of Aqua Beam 
7685      0       1       0         0         0         0           //Scroll of Teleport
7693      0       1       0         0         0         0           //Scroll of Inferno     
7694      0       1       0         0         0         0           //Scroll of Teleport Ally
7695      0       1       0         0         0         0           //Scroll of Soul Barrier
7696      0       1       0         0         0         0           //Scroll of Decay       
7697      0       1       0         0         0         0           //Scroll of Ice Storm   
7681      0       1       0         0         0         0           //Scroll of Meteorite       
7708      0       1       0         0         0         0           //Scroll of Wizardry Enhance
7709      0       1       0         0         0         0           //Scroll of Gigantic Storm 
7692      0       1       0         0         0         0           //Scroll of Cometfall
7699      0       1       0         0         0         0           //Chain Lightning Parchment  
7700      0       1       0         0         0         0           //Drain Life Parchment       
7701      0       1       0         0         0         0           //Lightning Shock Parchment  
7702      0       1       0         0         0         0           //Damage Reflection Parchment
7703      0       1       0         0         0         0           //Berserker Parchment        
7704      0       1       0         0         0         0           //Sleep Parchment            
7706      0       1       0         0         0         0           //Weakness Parchment         
7707      0       1       0         0         0         0           //Innovation Parchment   
7722      0       1       0         0         0         0           //Explosion Parchment
7723      0       1       0         0         0         0           //Requiem Parchment  
7724      0       1       0         0         0         0           //Pollution Parchment
7726      0       1       0         0         0         0           //Darkness Parchment 
7710      0       1       0         0         0         0           //Chain Drive Parchment      
7711      0       1       0         0         0         0           //Dark Side Parchment        
7712      0       1       0         0         0         0           //Dragon Roar Parchment      
7713      0       1       0         0         0         0           //Dragon Slasher Parchment   
7714      0       1       0         0         0         0           //Ignore Defense Parchment
7715      0       1       0         0         0         0           //Increase Health Parchment
7716      0       1       0         0         0         0           //Increase Block Parchment
7717      0       1       0         0         0         0           //Magic Arrow Act     
7718      0       1       0         0         0         0           //Plasma Ball Act     
7720      0       1       0         0         0         0           //Burst Act           
7721      0       1       0         0         0         0           //Haste Act   
6621      0       1       0         0         0         0           //Bat Flock Bead    
6622      0       1       0         0         0         0           //Detection Bead         

//news skills
12,482    0       1       0         0         0         0           //Demolish Bead
12,485    0       1       0         0         0         0           //Swordsman's Wrath
12,487    0       1       0         0         0         0           //Strong Belief Bead
12,488    0       1       0         0         0         0           //Solid Protection Bead

6620      0       1       0         0         0         0           //Sword Inertia Bead   
6156      0       1       0         0         0         0           //Orb of Rageful Blow 
6151      0       1       0         0         0         0           //Orb of Twisting Slash
6156      0       1       0         0         0         0           //Orb of Rageful Blow 
6163      0       1       0         0         0         0           //Orb of Death Stab 

6160      0       1       0         0         0         0           //Orb of Fire Slash   
6191      0       1       0         0         0         0           //Crystal of Flame Strike






6165      0       1       0         0         0         0           //Scroll of FireBurst      
6166      0       1       0         0         0         0           //Scroll of Summon         
6167      0       1       0         0         0         0           //Scroll of Critical Damage
6168      0       1       0         0         0         0           //Scroll of Electric Spark       
6179      0       1       0         0         0         0           //Scroll of Fire Scream    
6192      0       1       0         0         0         0           //Scroll of Chaotic Diseier 

6161      0       1       0         0         0         0           //Orb of Penetration  
6162      0       1       0         0         0         0           //Orb of Ice Arrow    
6415      0       1       0         0         0         0           //Spin Step Scroll   
6416      0       1       0         0         0         0           //Obsidian Scroll    
6417      0       1       0         0         0         0           //Magic Pin Scroll   
6418      0       1       0         0         0         0           //Harsh Strike Scroll
6419      0       1       0         0         0         0           //Shining Peak Scroll
6420      0       1       0         0         0         0           //Wrath Scroll       
6421      0       1       0         0         0         0           //Breche Scroll    

12,492   0       1       0         0         0         0           //Ice Break Bead
12,498   0       1       0         0         0         0           //Death Ice Ball
12,494   0       1       0         0         0         0           //Deathfire Orb
12,491   0       1       0         0         0         0           //Dark Plasma Bead


end