 3
//Index   DropRate
0         10000
1         10000
end

4
//Index   Section   SectionRate   MoneyAmount   OptionValue   DW   DK   FE   MG   DL   SU   RF   GL   RW   SL   GC
0         5         10000         13            32            1    1    1    1    1    1    1	 1    1    1    1  
1         6         5000          13            32            1    1    1    1    1    1    1    1    1    1    1     
1         7         5000          13            32            1    0    0    0    0    0    0    0    0    0    0   
1         8         5000          13            32            0    1    0    0    0    0    0    0    0    0    0
1         9         5000          13            32            0    0    1    0    0    0    0    0    0    0    0
1         10        5000          13            32            0    0    0    1    0    0    0    0    0    0    0
1         11        5000          13            32            0    0    0    0    1    0    0    0    0    0    0
1         12        5000          13            32            0    0    0    0    0    1    0    0    0    0    0
1         13        5000          13            32            0    0    0    0    0    0    1    0    0    0    0
1         14        5000          13            32            0    0    0    0    0    0    0    1    0    0    0
1         15        5000          13            32            0    0    0    0    0    0    0    0    1    0    0
1         16        5000          13            32            0    0    0    0    0    0    0    0    0    1    0
1         17        5000          13            32            0    0    0    0    0    0    0    0    0    0    1
end

5
//Index   Level   Grade   Option0   Option1   Option2   Option3   Option4   Option5   Option6   Duration Comment 
14,486    0       0       *         *         *         *         *         *         *         0         //Ruud Box (1500)
end

6
//Index   Level   Grade   Option0   Option1   Option2   Option3   Option4   Option5   Option6   Duration     Comment
2581      0       1       *         12        13        20        602       *         *         0               //Book of Shamu
2582      0       1       *         12        13        20        602       *         *         0               //Book of Neil"
2583      0       1       *         12        13        20        602       *         *         0               //Book of Lagle
2080      0       1       *         12        13        20        602       *         *         0               //Combat Quiver"
3114      0       1       *         12        13        20        602       *         *         0               //El Hazard Shield
3102      0       1       *         12        13        20        602       *         *         0               //Pluma Shield
3101      0       1       *         12        13        20        602       *         *         0               //Lapid Shield"              
3087      0       1       *         12        13        20        602       *         *         0               //Grand Soul Shield"          
3088      0       1       *         12        13        20        602       *         *         0               //Elemental Shield"           
3093      0       1       *         12        13        20        602       *         *         0               //Cross Shield
3103      0       1       *         12        13        20        602       *         *         0               //Alacran Shield" 
3072      0       1       *         12        13        20        602       *         *         0               //Small Shield"          
3073      0       1       *         12        13        20        602       *         *         0               //Horn Shield"           
3074      0       1       *         12        13        20        602       *         *         0               //Kite Shield"           
3075      0       1       *         12        13        20        602       *         *         0               //Elven Shield"          
3076      0       1       *         12        13        20        602       *         *         0               //Buckler"               
3077      0       1       *         12        13        20        602       *         *         0               //Dragon Slayer Shield"  
3078      0       1       *         12        13        20        602       *         *         0               //Skull Shield"          
3079      0       1       *         12        13        20        602       *         *         0               //Spiked Shield"         
3080      0       1       *         12        13        20        602       *         *         0               //Tower Shield"          
3081      0       1       *         12        13        20        602       *         *         0               //Plate Shield"          
3082      0       1       *         12        13        20        602       *         *         0               //Large Round Shield"    
3083      0       1       *         12        13        20        602       *         *         0               //Serpent Shield"        
3084      0       1       *         12        13        20        602       *         *         0               //Bronze Shield"         
3085      0       1       *         12        13        20        602       *         *         0               //Dragon Shield"         
3086      0       1       *         12        13        20        602       *         *         0               //Legendary Shield"   
end

7
//Manticore Wizard   
7,222        0       1       *         *         13        20        602       *         *         0    
8,222        0       1       *         *         13        20        602       *         *         0    
9,222        0       1       *         *         13        20        602       *         *         0    
10,222       0       1       *         *         13        20        602       *         *         0    
11,222       0       1       *         *         13        20        602       *         *         0    
end

8
//Manticore Knight   
7,221        0       1       *         *         13        20        602       *         *         0    
8,221        0       1       *         *         13        20        602       *         *         0    
9,221        0       1       *         *         13        20        602       *         *         0    
10,221       0       1       *         *         13        20        602       *         *         0    
11,221       0       1       *         *         13        20        602       *         *         0    

//Conviction
7,233        0       1       *         *         13        20        602       *         *         0    
8,233        0       1       *         *         13        20        602       *         *         0    
9,233        0       1       *         *         13        20        602       *         *         0    
10,233       0       1       *         *         13        20        602       *         *         0    
11,233       0       1       *         *         13        20        602       *         *         0    
end

9
//Manticore Elf (A)
7,223       0       1       *         *         13        20        602       *         *         0    
8,223       0       1       *         *         13        20        602       *         *         0    
9,223       0       1       *         *         13        20        602       *         *         0    
10,223      0       1       *         *         13        20        602       *         *         0    
11,223      0       1       *         *         13        20        602       *         *         0    
//Elf (B)
7,229       0       1       *         *         13        20        602       *         *         0    
8,229       0       1       *         *         13        20        602       *         *         0    
9,229       0       1       *         *         13        20        602       *         *         0    
10,229      0       1       *         *         13        20        602       *         *         0    
11,229      0       1       *         *         13        20        602       *         *         0    
end

10
//Manticore Magic (A)
8,225       0       1       *         *         13        20        602       *         *         0    
9,225       0       1       *         *         13        20        602       *         *         0    
10,225      0       1       *         *         13        20        602       *         *         0    
11,225      0       1       *         *         13        20        602       *         *         0    
// MG (B)
8,230       0       1       *         *         13        20        602       *         *         0    
9,230       0       1       *         *         13        20        602       *         *         0    
10,230      0       1       *         *         13        20        602       *         *         0    
11,230      0       1       *         *         13        20        602       *         *         0    
end

11
//Manticore Lord     
7,226       0       1       *         *         13        20        602       *         *         0    
8,226       0       1       *         *         13        20        602       *         *         0    
9,226       0       1       *         *         13        20        602       *         *         0    
10,226      0       1       *         *         13        20        602       *         *         0    
11,226      0       1       *         *         13        20        602       *         *         0    
end

12
//Manticore Summoner 
7,224        0       1       *         *         13        20        602       *         *         0    
8,224        0       1       *         *         13        20        602       *         *         0    
9,224        0       1       *         *         13        20        602       *         *         0    
10,224       0       1       *         *         13        20        602       *         *         0    
11,224       0       1       *         *         13        20        602       *         *         0    
end

13
//Manticore Fighter  
7,227         0       1       *         *         13        20        602       *         *         0    
8,227         0       1       *         *         13        20        602       *         *         0    
9,227         0       1       *         *         13        20        602       *         *         0    
11,227        0       1       *         *         13        20        602       *         *         0    
end

14
//Manticore Lancer   
7,228        0       1       *         *         13        20        602       *         *         0    
8,228        0       1       *         *         13        20        602       *         *         0    
9,228        0       1       *         *         13        20        602       *         *         0    
10,228       0       1       *         *         13        20        602       *         *         0    
11,228       0       1       *         *         13        20        602       *         *         0    
end

15
//Manticore Runist  
7,231       0       1       *         *         13        20        602       *         *         0    
8,231       0       1       *         *         13        20        602       *         *         0    
9,231       0       1       *         *         13        20        602       *         *         0    
10,231      0       1       *         *         13        20        602       *         *         0    
11,231      0       1       *         *         13        20        602       *         *         0    
end

16
//Manticore Slayer   
7,232       0       1       *         *         13        20        602       *         *         0    
8,232       0       1       *         *         13        20        602       *         *         0    
9,232       0       1       *         *         13        20        602       *         *         0    
10,232      0       1       *         *         13        20        602       *         *         0    
11,232      0       1       *         *         13        20        602       *         *         0    
end

17
//Awakening CG
7,215       0       1       *         *         13        20        602       *         *         0    
8,215       0       1       *         *         13        20        602       *         *         0    
9,215       0       1       *         *         13        20        602       *         *         0    
10,215      0       1       *         *         13        20        602       *         *         0    
11,215      0       1       *         *         13        20        602       *         *         0    
end