0
//Index   MixMoney   MixRate_AL0   MixRate_AL1   MixRate_AL2   MixRate_AL3
887		  1000000    100		   100			 100	       100			 
888		  1000000    100		   100			 100	       100			 
889		  1000000    100		   100			 100	       100			 
890		  1000000    100		   100			 100	       100
891		  1000000    100		   100			 100	       100			 
892		  1000000    100		   100			 100	       100			 
893		  1000000    100		   100			 100	       100			 
894		  1000000    100		   100			 100	       100
895		  1000000    100		   100			 100	       100			 
896		  1000000    100		   100			 100	       100			 
897		  1000000    100		   100			 100	       100			 
898		  1000000    100		   100			 100	       100
1146	  1000000    100		   100			 100	       100
899		  1000000    100		   100			 100	       100
900		  1000000    100		   100			 100	       100
end

1
//Index   Group   Count   ItemIndex   ItemLevel   ItemOption1   ItemOption2   ItemOption3   ItemNewOption   ItemSetOption
887	  	  0	  	  1		  3799	      -1		  -1			-1		      -1		    -1			    -1			  //Soul Gunner Helm //Verificar ID do item 512 X Caategoria + Nº do Item
887	  	  0	  	  1		  7617	      -1		  -1			-1		      -1		    -1			    -1			  //Frost Soul 1
887	  	  0	  	  30	  7181	      -1		  -1			-1		      -1		    -1			    -1			  //Bless ou Soul 30 
887	  	  0	  	  30	  7182	      -1		  -1			-1		      -1		    -1			    -1			  //Bless ou Soul 30
887	  	  0	  	  1		  6159	      -1		  -1			-1		      -1		    -1			    -1			  //Chaos 1
887	  	  0	  	  1		  7190	      -1		  -1			-1		      -1		    -1			    -1			  //Creation 1
888	  	  0	  	  1		  4311	      -1		  -1			-1		      -1		    -1			    -1			  //Soul Gunner Armor //Verificar ID do item 512 X Caategoria + Nº do Item
888	  	  0	  	  1		  7617	      -1		  -1			-1		      -1		    -1			    -1			  //Frost Soul 1
888	  	  0	  	  30	  7181	      -1		  -1			-1		      -1		    -1			    -1			  //Bless ou Soul 30
888	  	  0	  	  30	  7182	      -1		  -1			-1		      -1		    -1			    -1			  //Bless ou Soul 30
888	  	  0	  	  1		  6159	      -1		  -1			-1		      -1		    -1			    -1			  //Chaos 1
888  	  0	  	  1		  7190	      -1		  -1			-1		      -1		    -1			    -1			  //Creation 1
889	  	  0	  	  1		  4823	      -1		  -1			-1		      -1		    -1			    -1			  //Soul Gunner Pants //Verificar ID do item 512 X Caategoria + Nº do Item
889	  	  0	  	  1		  7617	      -1		  -1			-1		      -1		    -1			    -1			  //Frost Soul 1
889	  	  0	  	  30	  7181	      -1		  -1			-1		      -1		    -1			    -1			  //Bless ou Soul 30
889	  	  0	  	  30	  7182	      -1		  -1			-1		      -1		    -1			    -1			  //Bless ou Soul 30
889	  	  0	  	  1		  6159	      -1		  -1			-1		      -1		    -1			    -1			  //Chaos 1
889	  	  0	  	  1		  7190	      -1		  -1			-1		      -1		    -1			    -1			  //Creation 1
890	  	  0	  	  1		  5847	      -1		  -1			-1		      -1		    -1			    -1			  //Soul Gunner Boots //Verificar ID do item 512 X Caategoria + Nº do Item
890	  	  0	  	  1		  7617	      -1		  -1			-1		      -1		    -1			    -1			  //Frost Soul 1
890	  	  0	  	  30	  7181	      -1		  -1			-1		      -1		    -1			    -1			  //Bless ou Soul 30
890	  	  0	  	  30	  7182	      -1		  -1			-1		      -1		    -1			    -1			  //Bless ou Soul 30
890	  	  0	  	  1		  6159	      -1		  -1			-1		      -1		    -1			    -1			  //Chaos 1
890	  	  0	  	  1		  7190	      -1		  -1			-1		      -1		    -1			    -1			  //Creation 1
891	  	  0	  	  1		  3800	      -1		  -1			-1		      -1		    -1			    -1			  //Blue Eye Gunner Helm //Verificar ID do item 512 X Caategoria + Nº do Item
891	  	  0	  	  1		  7662	      -1		  -1			-1		      -1		    -1			    -1			  //Silver Heart Anvil 1
891	  	  0	  	  30	  7181	      -1		  -1			-1		      -1		    -1			    -1			  //Bless ou Soul 30 
891	  	  0	  	  30	  7182	      -1		  -1			-1		      -1		    -1			    -1			  //Bless ou Soul 30
891	  	  0	  	  1		  6159	      -1		  -1			-1		      -1		    -1			    -1			  //Chaos 1
891	  	  0	  	  1		  7190	      -1		  -1			-1		      -1		    -1			    -1			  //Creation 1
892	  	  0	  	  1		  4312	      -1		  -1			-1		      -1		    -1			    -1			  //Blue Eye Gunner Armor //Verificar ID do item 512 X Caategoria + Nº do Item
892	  	  0	  	  1		  7662	      -1		  -1			-1		      -1		    -1			    -1			  //Silver Heart Anvil 1
892	  	  0	  	  30	  7181	      -1		  -1			-1		      -1		    -1			    -1			  //Bless ou Soul 30
892	  	  0	  	  30	  7182	      -1		  -1			-1		      -1		    -1			    -1			  //Bless ou Soul 30
892	  	  0	  	  1		  6159	      -1		  -1			-1		      -1		    -1			    -1			  //Chaos 1
892  	  0	  	  1		  7190	      -1		  -1			-1		      -1		    -1			    -1			  //Creation 1
893	  	  0	  	  1		  4824	      -1		  -1			-1		      -1		    -1			    -1			  //Blue Eye Gunner Pants //Verificar ID do item 512 X Caategoria + Nº do Item
893	  	  0	  	  1		  7662	      -1		  -1			-1		      -1		    -1			    -1			  //Silver Heart Anvil 1
893	  	  0	  	  30	  7181	      -1		  -1			-1		      -1		    -1			    -1			  //Bless ou Soul 30
893	  	  0	  	  30	  7182	      -1		  -1			-1		      -1		    -1			    -1			  //Bless ou Soul 30
893	  	  0	  	  1		  6159	      -1		  -1			-1		      -1		    -1			    -1			  //Chaos 1
893	  	  0	  	  1		  7190	      -1		  -1			-1		      -1		    -1			    -1			  //Creation 1
894	  	  0	  	  1		  5848	      -1		  -1			-1		      -1		    -1			    -1			  //Blue Eye Gunner Boots //Verificar ID do item 512 X Caategoria + Nº do Item
894	  	  0	  	  1		  7662	      -1		  -1			-1		      -1		    -1			    -1			  //Silver Heart Anvil 1
894	  	  0	  	  30	  7181	      -1		  -1			-1		      -1		    -1			    -1			  //Bless ou Soul 30
894	  	  0	  	  30	  7182	      -1		  -1			-1		      -1		    -1			    -1			  //Bless ou Soul 30
894	  	  0	  	  1		  6159	      -1		  -1			-1		      -1		    -1			    -1			  //Chaos 1
894	  	  0	  	  1		  7190	      -1		  -1			-1		      -1		    -1			    -1			  //Creation 1
895	  	  0	  	  1		  3801	      -1		  -1			-1		      -1		    -1			    -1			  //Silver Heart Gunner Helm //Verificar ID do item 512 X Caategoria + Nº do Item
895	  	  0	  	  1		  7669	      -1		  -1			-1		      -1		    -1			    -1			  //Manticore Anvil 1
895	  	  0	  	  30	  7181	      -1		  -1			-1		      -1		    -1			    -1			  //Bless ou Soul 30 
895	  	  0	  	  30	  7182	      -1		  -1			-1		      -1		    -1			    -1			  //Bless ou Soul 30
895	  	  0	  	  1		  6159	      -1		  -1			-1		      -1		    -1			    -1			  //Chaos 1
895	  	  0	  	  1		  7190	      -1		  -1			-1		      -1		    -1			    -1			  //Creation 1
896	  	  0	  	  1		  4313	      -1		  -1			-1		      -1		    -1			    -1			  //Silver Heart Gunner Armor //Verificar ID do item 512 X Caategoria + Nº do Item
896	  	  0	  	  1		  7669	      -1		  -1			-1		      -1		    -1			    -1			  //Manticore Anvil 1
896	  	  0	  	  30	  7181	      -1		  -1			-1		      -1		    -1			    -1			  //Bless ou Soul 30
896	  	  0	  	  30	  7182	      -1		  -1			-1		      -1		    -1			    -1			  //Bless ou Soul 30
896	  	  0	  	  1		  6159	      -1		  -1			-1		      -1		    -1			    -1			  //Chaos 1
896  	  0	  	  1		  7190	      -1		  -1			-1		      -1		    -1			    -1			  //Creation 1
897	  	  0	  	  1		  4825	      -1		  -1			-1		      -1		    -1			    -1			  //Silver Heart Gunner Pants //Verificar ID do item 512 X Caategoria + Nº do Item
897	  	  0	  	  1		  7669	      -1		  -1			-1		      -1		    -1			    -1			  //Manticore Anvil 1
897	  	  0	  	  30	  7181	      -1		  -1			-1		      -1		    -1			    -1			  //Bless ou Soul 30
897	  	  0	  	  30	  7182	      -1		  -1			-1		      -1		    -1			    -1			  //Bless ou Soul 30
897	  	  0	  	  1		  6159	      -1		  -1			-1		      -1		    -1			    -1			  //Chaos 1
897	  	  0	  	  1		  7190	      -1		  -1			-1		      -1		    -1			    -1			  //Creation 1
898	  	  0	  	  1		  5849	      -1		  -1			-1		      -1		    -1			    -1			  //Silver Heart Gunner Boots //Verificar ID do item 512 X Caategoria + Nº do Item
898	  	  0	  	  1		  7669	      -1		  -1			-1		      -1		    -1			    -1			  //Manticore Anvil 1
898	  	  0	  	  30	  7181	      -1		  -1			-1		      -1		    -1			    -1			  //Bless ou Soul 30
898	  	  0	  	  30	  7182	      -1		  -1			-1		      -1		    -1			    -1			  //Bless ou Soul 30
898	  	  0	  	  1		  6159	      -1		  -1			-1		      -1		    -1			    -1			  //Chaos 1
898	  	  0	  	  1		  7190	      -1		  -1			-1		      -1		    -1			    -1			  //Creation 1
1146	  0	  	  1		  2099	      -1		  -1			-1		      -1		    -1			    -1			  //Soul Magic Gun //Verificar ID do item 512 X Caategoria + Nº do Item
1146	  0	  	  1		  7663	      -1		  -1			-1		      -1		    -1			    -1			  //Blue Eye Anvil
1146	  0	  	  30	  7181	      -1		  -1			-1		      -1		    -1			    -1			  //Bless ou Soul 30
1146	  0	  	  30	  7182	      -1		  -1			-1		      -1		    -1			    -1			  //Bless ou Soul 30
1146	  0	  	  1		  6159	      -1		  -1			-1		      -1		    -1			    -1			  //Chaos 1
1146	  0	  	  1		  7190	      -1		  -1			-1		      -1		    -1			    -1			  //Creation 1
899	  	  0	  	  1		  2100	      -1		  -1			-1		      -1		    -1			    -1			  //Blue Eye Magic Gun //Verificar ID do item 512 X Caategoria + Nº do Item
899	  	  0	  	  1		  7670	      -1		  -1			-1		      -1		    -1			    -1			  //Silver Heart Anvil
899	  	  0	  	  30	  7181	      -1		  -1			-1		      -1		    -1			    -1			  //Bless ou Soul 30
899	  	  0	  	  30	  7182	      -1		  -1			-1		      -1		    -1			    -1			  //Bless ou Soul 30
899	  	  0	  	  1		  6159	      -1		  -1			-1		      -1		    -1			    -1			  //Chaos 1
899	  	  0	  	  1		  7190	      -1		  -1			-1		      -1		    -1			    -1			  //Creation 1
900	  	  0	  	  1		  2094	      -1		  -1			-1		      -1		    -1			    -1			  //Archangel's Absolute Magic Gun //Verificar ID do item 512 X Caategoria + Nº do Item
900	  	  0	  	  1		  7511	      -1		  -1			-1		      -1		    -1			    -1			  //Archangel's Hammer
900	  	  0	  	  30	  7181	      -1		  -1			-1		      -1		    -1			    -1			  //Jewel of Bless 30
900	  	  0	  	  30	  7182	      -1		  -1			-1		      -1		    -1			    -1			  //Jewel of Soul 30
900	  	  0	  	  30	  7184	      -1		  -1			-1		      -1		    -1			    -1			  //Jewel of Life 30
900	  	  0	  	  1		  6159	      -1		  -1			-1		      -1		    -1			    -1			  //Chaos 1
end

2
//Index   Group   BagSpecial
887		  0		  150
888       0       151
889       0       152
890       0       153
891		  0		  154
892       0       155
893       0       156
894       0       157
895		  0		  158
896       0       159
897       0       160
898       0       161
1146      0       162
899       0       163
900       0       164
end