 3
//Index   DropRate
0         10000
1         10000
end

4
//Index   Section   SectionRate   MoneyAmount   OptionValue   DW   DK   FE   MG   DL   SU   RF   GL   RW   SL   GC
0         5         10000         100           32            1    1    1    1    1    1    1    1    1    1    1    
1         6         10000         100           32            1    1    1    1    1    1    1    1    1    1    1    
end

5
//Index   Level   Grade   Option0   Option1   Option2   Option3   Option4   Option5   Option6   Duration   Comment
6289      0       0       *         *         *         *         *         *         *         0          //Mithril
end

6
//Index   Level   Grade   Option0   Option1   Option2   Option3   Option4   Option5   Option6   Duration   Comment
6355      0       0       *         *         *         *         *         *         5         0          //Ancient Icarus Scroll" 
6356      0       0       *         *         *         *         *         *         5         0          //Arca's Prophecy"
6353      0       0       *         *         *         *         *         *         5         0          //Kundun's Magic Spell Scroll"

end