3
//Index   DropRate
0         10000
end

4
//Index   Section   SectionRate   MoneyAmount   OptionValue   DW   DK   FE   MG   DL   SU   RF   GL   RW   SL  GC
0         5         10000         0             0             1    1    1    1    1    1    1    1    1    1   1
0         6         20000         0             0             1    1    1    1    1    1    1    1    1    1   1
end

5
//Index   Level   Grade   Option0   Option1   Option2   Option3   Option4   Option5   Option6   Duration   Comment
8403      0       *       *         *         *         *         *         *         *         0          //Evolution Stone
end

6
//Index   Level   Grade   Option0   Option1   Option2   Option3   Option4   Option5   Option6   Duration   Comment
16,212    1       0       *         *         *         *         *         *         *         0          //Luki
16,214    1       0       *         *         *         *         *         *         *         0          //Tony
end