3
//Index   DropRate
0         10000
end

4
//Index   Section   SectionRate   MoneyAmount   OptionValue   DW   DK   FE   MG   DL   SU   RF   GL   RW   SL  GC
0         5         1000          0             4             1    1    1    1    1    1    1    1    1    1   1 
end

5
//Index   Level   Grade   Option0   Option1   Option2   Option3   Option4   Option5   Option6   Duration Comment 
//7392      0       0       *         *         *         *         *         *         *        0         //Bless of Light (Greater)
7431      0       0       *         *         *         *         *         *         *        0         //Bless of Light (Low Grade)
7431      0       0       *         *         *         *         *         *         *        0         //Bless of Light (Low Grade)
7431      0       0       *         *         *         *         *         *         *        0         //Bless of Light (Low Grade)
end
