3
//Index   DropRate
0         10000
end

4
//Index   Section   SectionRate   MoneyAmount   OptionValue   DW   DK   FE   MG   DL   SU   RF   GL   RW   SL   GC
0         5         3500          0             4             1    1    1    1    1    1    1    1    1    1    1 
0         6         3500          0             4             1    1    1    1    1    1    1    1    1    1    1
0         7         3000          0             0             1    1    1    1    1    1    1    1    1    1    1
end

5
//Index   Level   Grade   Option0   Option1   Option2   Option3   Option4   Option5   Option6   Duration   Comment
14,013    0       3       *         *         *         *         *         *         *         0          //Jewel of Bless
end

6
//Index   Level   Grade   Option0   Option1   Option2   Option3   Option4   Option5   Option6   Duration   Comment
14,014    0       3       *         *         *         *         *         *         *         0          //Jewel of Soul
end

7
//Index   Level   Grade   Option0   Option1   Option2   Option3   Option4   Option5   Option6   Duration   Comment
7621      0       0       *         *         *         *         *         *         *         0          //Switch Scroll
end