3
//Index   DropRate
0         10000
end

4
//Index   Section   SectionRate   MoneyAmount   OptionValue   DW   DK   FE   MG   DL   SU   RF   GL   RW   SL   GC  
0         5         500           100           32            1    1    1    1    1    1    1    1    1    1    1   
0         6         2500          100           32            1    1    1    1    1    1    1    1    1    1    1  
0         7         7000          100           32            1    1    1    1    1    1    1    1    1    1    1  
end
 
5
//Index   Level   Grade   Option0   Option1   Option2   Option3   Option4   Option5   Option6   Duration Comment
6811      0       0       *         *         *         *         *         *         *         0        //Scroll of Gray Oblivion
6808      0       0       *         *         *         *         *         *         *         0        //Scroll of Green Oblivion
6809      0       0       *         *         *         *         *         *         *         0        //Scroll of Blue Oblivion
6810      0       0       *         *         *         *         *         *         *         0        //Scroll of Red Oblivion 
7165      0       0       *         *         *         *         *         *         *         0        //Scroll of Black Oblivion
end

6
//Index   Level   Grade   Option0   Option1   Option2   Option3   Option4   Option5   Option6   Duration Comment
6670      0       0       *         *         *         *         *         *         *         0        //Loch's Feather
6289      0       0       *         *         *         *         *         *         *         0        //Mithril
6716      0       0       *         *         *         *         *         *         *         0        //Indulgence"
6432      0       0       *         *         *         *         *         *         *         0        //Elemental Rune"                    1  
6344      0       0       *         *         *         *         *         *         5         0        //Muren's Book of Magic"              100
6345      0       0       *         *         *         *         *         *         5         0        //Scroll of Etramu"                   150
6346      0       0       *         *         *         *         *         *         5         0        //Lorencia Knights' Iron Shield"      150
6347      0       0       *         *         *         *         *         *         5         0        //Iron Shield of the Magic"           180
6348      0       0       *         *         *         *         *         *         5         0        //Hero Elixir"                        150
6349      0       0       *         *         *         *         *         *         5         0        //Brave Hero Elixir"                  180
6350      0       0       *         *         *         *         *         *         5         0        //Gladiator's Dagger"                 150
6351      0       0       *         *         *         *         *         *         5         0        //Merciless Gladiator's Dagger"       180
end

7
//Index   Level   Grade   Option0   Option1   Option2   Option3   Option4   Option5   Option6   Duration Comment
5809     0       0       -1        12        12        -1        2         2         -1         0        //slayer Nightwing
3761     0       0       -1        12        12        -1        2         2         -1         0        //slayer Nightwing         
4273     0       0       -1        12        12        -1        2         2         -1         0        //slayer Nightwing        
5297     0       0       -1        12        12        -1        2         2         -1         0        //slayer Nightwing  
4785     0       0       -1        12        12        -1        2         2         -1         0        //slayer Nightwing      
4634     0       0       -1        12        12        -1        2         2         -1         0        //Agnis-Broy Adamantine Pants
6665     0       0       -1        12        12        -1        2         2         -1         0        //Kantata-Agnis Ring of Poison
3610     0       0       -1        12        12        -1        2         2         -1         0        //Agnis Adamantine Mask
4122     0       0       -1        12        12        -1        2         2         -1         0        //Agnis Adamantine Armor
6683     0       0       -1        12        12        -1        2         2         -1         0        //Alvis-Gaion Pendant of Water
2569     0       0       -1        12        12        -1        2         2         -1         0        //Alvis Dragon Soul Staff
4114     0       0       -1        12        12        -1        2         2         -1         0        //Alvis Grand Soul Armor
5138     0       0       -1        12        12        -1        2         2         -1         0        //Alvis Grand Soul Gloves
5650     0       0       -1        12        12        -1        2         2         -1         0        //Alvis Grand Soul Boots
3589     0       0       -1        12        12        -1        2         2         -1         0        //Warrior-Anonymous Leather Helm
4613     0       0       -1        12        12        -1        2         2         -1         0        //Warrior-Anonymous Leather Pants
5637     0       0       -1        12        12        -1        2         2         -1         0        //Warrior-Anonymous Leather Boots
3072     0       0       -1        12        12        -1        2         2         -1         0        //Anonymous Shield
3587     0       0       -1        12        12        -1        2         2         -1         0        //Enis-Anubis Legendary Helm
4099     0       0       -1        12        12        -1        2         2         -1         0        //Enis-Anubis Legendary Armor
6677     0       0       -1        12        12        -1        2         2         -1         0        //Anubis-Muren Ring of Fire
5123     0       0       -1        12        12        -1        2         2         -1         0        //Anubis Legendary Gloves
6669     0       0       -1        12        12        -1        2         2         -1         0        //Garuda-Apis Pendant of Fire
5669     0       0       -1        12        12        -1        2         2         -1         0        //Apis Valiant Boots
3586     0       0       -1        12        12        -1        2         2         -1         0        //Apollo-Bernake Pad Helm
2560     0       0       -1        12        12        -1        2         2         -1         0        //Apollo Skull Staff
4610     0       0       -1        12        12        -1        2         2         -1         0        //Apollo-Bernake Pad Pants
4098     0       0       -1        12        12        -1        2         2         -1         0        //Apollo Pad Armor
6680     0       0       -1        12        12        -1        2         2         -1         0        //Apollo-Chrono Ring of Magic
5122     0       0       -1        12        12        -1        2         2         -1         0        //Apollo Pad Gloves
6681     0       0       -1        12        12        -1        2         2         -1         0        //Apollo-Broy Pendant of Ice
4621     0       0       -1        12        12        -1        2         2         -1         0        //Argo-Karis Spirit Pants
4109     0       0       -1        12        12        -1        2         2         -1         0        //Argo Spirit Armor
5133     0       0       -1        12        12        -1        2         2         -1         0        //Argo Spirit Gloves
4110     0       0       -1        12        12        -1        2         2         -1         0        //Aruan-Gywen Guardian Armor
5646     0       0       -1        12        12        -1        2         2         -1         0        //Aruan-Gywen Guardian Boots
3598     0       0       -1        12        12        -1        2         2         -1         0        //Aruan-Guardian Helm
4622     0       0       -1        12        12        -1        2         2         -1         0        //Aruan-Guardian Pants
3586     0       0       -1        12        12        -1        2         2         -1         0        //Apollo-Barnake Pad Helm
0023     0       0       -1        12        12        -1        2         2         -1         0        //Barnake Pants
5634     0       0       -1        12        12        -1        2         2         -1         0        //Barnake Boots
3590     0       0       -1        12        12        -1        2         2         -1         0        //Eplete-Berserker Scale Helm
4102     0       0       -1        12        12        -1        2         2         -1         0        //Eplete-Berserker Scale Armor
5126     0       0       -1        12        12        -1        2         2         -1         0        //Berserker Scale Gloves
5638     0       0       -1        12        12        -1        2         2         -1         0        //Berserker Scale Boots
2568     0       0       -1        12        12        -1        2         2         -1         0        //Bes Staff of Destruction
4643     0       0       -1        12        12        -1        2         2         -1         0        //Best Eclipse Pants
0017     0       0       -1        12        12        -1        2         2         -1         0        //Bragi Dark Breaker
3601     0       0       -1        12        12        -1        2         2         -1         0        //Bragi Dark Phoenix Helm
4113     0       0       -1        12        12        -1        2         2         -1         0        //Bragi Dark Phoenix Armor
4625     0       0       -1        12        12        -1        2         2         -1         0        //Bragi Dark Phoenix Pants
5649     0       0       -1        12        12        -1        2         2         -1         0        //Bragi Dark Phoenix Boots
4634     0       0       -1        12        12        -1        2         2         -1         0        //Agnis-Broy Adamantine Pants
6681     0       0       -1        12        12        -1        2         2         -1         0        //Apollo-Broy Pendant of Ice
5146     0       0       -1        12        12        -1        2         2         -1         0        //Broy Adamantine Gloves
5658     0       0       -1        12        12        -1        2         2         -1         0        //Broy Adamantine Boots
3594     0       0       -1        12        12        -1        2         2         -1         0        //Ceto-Drake Vine Helm
0002     0       0       -1        12        12        -1        2         2         -1         0        //Ceto Rapier
4618     0       0       -1        12        12        -1        2         2         -1         0        //Ceto-Drake Vine Pants
5130     0       0       -1        12        12        -1        2         2         -1         0        //Ceto Vine Gloves
5642     0       0       -1        12        12        -1        2         2         -1         0        //Ceto-Drake Vine Boots
6678     0       0       -1        12        12        -1        2         2         -1         0        //Vicious-Ceto Ring of Earth
0032     0       0       -1        12        12        -1        2         2         -1         0        //Vega-Chamer Sacred Glove
4155     0       0       -1        12        12        -1        2         2         -1         0        //Vega-Chamer Sacred Fire Armor
4667     0       0       -1        12        12        -1        2         2         -1         0        //Vega-Chamer Sacred Fire Pants
5691     0       0       -1        12        12        -1        2         2         -1         0        //Chamer Sacred Fire Boots
3624     0       0       -1        12        12        -1        2         2         -1         0        //Chromo-Semeden Red Wing Helm
5160     0       0       -1        12        12        -1        2         2         -1         0        //Chromo-Semeden Red Wing Gloves
6680     0       0       -1        12        12        -1        2         2         -1         0        //Apollo-Chrono Ring of Magic
4648     0       0       -1        12        12        -1        2         2         -1         0        //Chrono Red Wing Pants
4616     0       0       -1        12        12        -1        2         2         -1         0        //Garuda-Cloud Brass Pants
3592     0       0       -1        12        12        -1        2         2         -1         0        //Cloud Brass Helm
3594     0       0       -1        12        12        -1        2         2         -1         0        //Ceto-Drake Vine Helm
4618     0       0       -1        12        12        -1        2         2         -1         0        //Ceto-Drake Vine Pants
5642     0       0       -1        12        12        -1        2         2         -1         0        //Ceto-Drake Vine Boots
4106     0       0       -1        12        12        -1        2         2         -1         0        //Drake Vine Armor
6664     0       0       -1        12        12        -1        2         2         -1         0        //Warrior-Elune Ring of Ice
2578     0       0       -1        12        12        -1        2         2         -1         0        //Elune Demonic Stick
4138     0       0       -1        12        12        -1        2         2         -1         0        //Elune Demonic Armor
4650     0       0       -1        12        12        -1        2         2         -1         0        //Elune Demonic Pants
5162     0       0       -1        12        12        -1        2         2         -1         0        //Elune Demonic Gloves
4620     0       0       -1        12        12        -1        2         2         -1         0        //Odin-Elvian Wind Pants
5644     0       0       -1        12        12        -1        2         2         -1         0        //Odin-Elvian Wind Boots
3587     0       0       -1        12        12        -1        2         2         -1         0        //Enis-Anubis Legendary Helm
4099     0       0       -1        12        12        -1        2         2         -1         0        //Enis-Anubis Legendary Armor
4611     0       0       -1        12        12        -1        2         2         -1         0        //Enis Legendary Pants
5635     0       0       -1        12        12        -1        2         2         -1         0        //Enis Legendary Boots
3590     0       0       -1        12        12        -1        2         2         -1         0        //Eplete-Berserker Scale Helm
4102     0       0       -1        12        12        -1        2         2         -1         0        //Berserker-Eplete Scale Armor
4614     0       0       -1        12        12        -1        2         2         -1         0        //Eplete-Berserker Scale Pants
6668     0       0       -1        12        12        -1        2         2         -1         0        //Eplete-Tyr Pendant of Lighting
3081     0       0       -1        12        12        -1        2         2         -1         0        //Eplete Plate Shield
4100     0       0       -1        12        12        -1        2         2         -1         0        //Evis-Sylion Bone Armor
5636     0       0       -1        12        12        -1        2         2         -1         0        //Evis-Sylion Bone Boots
6682     0       0       -1        12        12        -1        2         2         -1         0        //Frigg-Evis Pendant of Wind
4612     0       0       -1        12        12        -1        2         2         -1         0        //Evis Bone Pants
4619     0       0       -1        12        12        -1        2         2         -1         0        //Fase-Gaia Silk Pants
5131     0       0       -1        12        12        -1        2         2         -1         0        //Fase-Gaia Silk Gloves
5643     0       0       -1        12        12        -1        2         2         -1         0        //Fase Silk Boots
6682     0       0       -1        12        12        -1        2         2         -1         0        //Frigg-Evis Pendant of Wind
2065     0       0       -1        12        12        -1        2         2         -1         0        //Frigg Celestial Bow
4115     0       0       -1        12        12        -1        2         2         -1         0        //Frigg Holly Spirit Armor
4627     0       0       -1        12        12        -1        2         2         -1         0        //Frigg Holly Spirit Pants
5651     0       0       -1        12        12        -1        2         2         -1         0        //Frigg Holly Spirit Boots
4619     0       0       -1        12        12        -1        2         2         -1         0        //Fase-Gaia Silk Pants
5131     0       0       -1        12        12        -1        2         2         -1         0        //Fase-Gaia Silk Gloves
2057     0       0       -1        12        12        -1        2         2         -1         0        //Gaia Golden Crossbow
3595     0       0       -1        12        12        -1        2         2         -1         0        //Gaia Silk Helm
4107     0       0       -1        12        12        -1        2         2         -1         0        //Gaia Silk Armor
4111     0       0       -1        12        12        -1        2         2         -1         0        //Gaion-Muren Storm Crow Armor
4623     0       0       -1        12        12        -1        2         2         -1         0        //Gaion-Muren Storm Crow Pants
6683     0       0       -1        12        12        -1        2         2         -1         0        //Alvis-Gaion Pendant of Water
5647     0       0       -1        12        12        -1        2         2         -1         0        //Gaion Storm Crow Boots
4616     0       0       -1        12        12        -1        2         2         -1         0        //Garuda-Cloud Brass Pants
6669     0       0       -1        12        12        -1        2         2         -1         0        //Garuda-Apis Pendant of Fire
4104     0       0       -1        12        12        -1        2         2         -1         0        //Garuda Brass Armor
5128     0       0       -1        12        12        -1        2         2         -1         0        //Garuda Brass Gloves
5640     0       0       -1        12        12        -1        2         2         -1         0        //Garuda Brass Boots
4110     0       0       -1        12        12        -1        2         2         -1         0        //Aruan-Gywen Guardian Armor
5646     0       0       -1        12        12        -1        2         2         -1         0        //Aruan-Gywen Guardian Boots
6684     0       0       -1        12        12        -1        2         2         -1         0        //Aruan-Horus Pendant of Ability
2053     0       0       -1        12        12        -1        2         2         -1         0        //Gywen Silver Bow
5134     0       0       -1        12        12        -1        2         2         -1         0        //Gywen Guardian Gloves
4137     0       0       -1        12        12        -1        2         2         -1         0        //Harpy Ancient Armor
5673     0       0       -1        12        12        -1        2         2         -1         0        //Harpy Ancient Boots
4103     0       0       -1        12        12        -1        2         2         -1         0        //Minet-Heras Sphinx Armor
3591     0       0       -1        12        12        -1        2         2         -1         0        //Heras Sphinx Mask
4615     0       0       -1        12        12        -1        2         2         -1         0        //Minet-Heras Sphinx Pants
5127     0       0       -1        12        12        -1        2         2         -1         0        //Heras Sphinx Gloves
5639     0       0       -1        12        12        -1        2         2         -1         0        //Minet-Heras Sphinx Boots
3078     0       0       -1        12        12        -1        2         2         -1         0        //Heras Skull Shield
6684     0       0       -1        12        12        -1        2         2         -1         0        //Gywen-Horus Pendant of Ability
0033     0       0       -1        12        12        -1        2         2         -1         0        //Horus Holy Storm Claw
3585     0       0       -1        12        12        -1        2         2         -1         0        //Hyon-Vicious Dragon Helm
0014     0       0       -1        12        12        -1        2         2         -1         0        //Hyon Lightning Sword
5121     0       0       -1        12        12        -1        2         2         -1         0        //Hyon Dragon Gloves
5633     0       0       -1        12        12        -1        2         2         -1         0        //Hyon Dragon Boots
4608     0       0       -1        12        12        -1        2         2         -1         0        //Hyperion-Mist Bronze Pants
4096     0       0       -1        12        12        -1        2         2         -1         0        //Hyperion Bronze Armor
5632     0       0       -1        12        12        -1        2         2         -1         0        //Hyperion Bronze Boots
4105     0       0       -1        12        12        -1        2         2         -1         0        //Kantata-Rave Plate Armor
6665     0       0       -1        12        12        -1        2         2         -1         0        //Kantata-Agnis Ring of Poison
6679     0       0       -1        12        12        -1        2         2         -1         0        //Kantata-Magni Ring of Wind
5129     0       0       -1        12        12        -1        2         2         -1         0        //Kantata Plate Gloves
5641     0       0       -1        12        12        -1        2         2         -1         0        //Kantata Plate Boots
4621     0       0       -1        12        12        -1        2         2         -1         0        //Argo-Karis Spirit Pants
3597     0       0       -1        12        12        -1        2         2         -1         0        //Karis Spirit Helm
5645     0       0       -1        12        12        -1        2         2         -1         0        //Karis Spirit Boots
5147     0       0       -1        12        12        -1        2         2         -1         0        //Khone Dark Steel Gloves
5659     0       0       -1        12        12        -1        2         2         -1         0        //Khone Dark Steel Boots
6679     0       0       -1        12        12        -1        2         2         -1         0        //Kantata-Magni Ring of Wind
0034     0       0       -1        12        12        -1        2         2         -1         0        //Magni Piercing Blade Glove
3645     0       0       -1        12        12        -1        2         2         -1         0        //Magni Piercing Helm
4157     0       0       -1        12        12        -1        2         2         -1         0        //Magni Piercing Armor
5693     0       0       -1        12        12        -1        2         2         -1         0        //Magni Piercing Boots
3084     0       0       -1        12        12        -1        2         2         -1         0        //Mahes Bronze Shield
4624     0       0       -1        12        12        -1        2         2         -1         0        //Mahes Black Dragon Pants
4103     0       0       -1        12        12        -1        2         2         -1         0        //Minet-Heras Sphinx Armor
4615     0       0       -1        12        12        -1        2         2         -1         0        //Minet-Heras Sphinx Pants
5639     0       0       -1        12        12        -1        2         2         -1         0        //Minet-Heras Sphinx Boots
4608     0       0       -1        12        12        -1        2         2         -1         0        //Hyperion-Mist Bronze Pants
3584     0       0       -1        12        12        -1        2         2         -1         0        //Mist Bronze Helm
5120     0       0       -1        12        12        -1        2         2         -1         0        //Mist Bronze Gloves
4111     0       0       -1        12        12        -1        2         2         -1         0        //Gaion-Muren Storm Crow Armor
4623     0       0       -1        12        12        -1        2         2         -1         0        //Gaion-Muren Storm Crow Pants
6677     0       0       -1        12        12        -1        2         2         -1         0        //Anubis-Muren Ring of Fire
5135     0       0       -1        12        12        -1        2         2         -1         0        //Muren Storm Crow Gloves
4620     0       0       -1        12        12        -1        2         2         -1         0        //Odin-Elvian Wind Pants
5644     0       0       -1        12        12        -1        2         2         -1         0        //Odin-Elvian Wind Boots
3596     0       0       -1        12        12        -1        2         2         -1         0        //Odin Wind Helm
4108     0       0       -1        12        12        -1        2         2         -1         0        //Odin Wind Armor
5132     0       0       -1        12        12        -1        2         2         -1         0        //Odin Wind Gloves
4105     0       0       -1        12        12        -1        2         2         -1         0        //Kantata-Rave Plate Armor
3593     0       0       -1        12        12        -1        2         2         -1         0        //Rave Plate Helm
4617     0       0       -1        12        12        -1        2         2         -1         0        //Rave Plate Pants
3624     0       0       -1        12        12        -1        2         2         -1         0        //Chrono-Semeden Red Wing Helm
5160     0       0       -1        12        12        -1        2         2         -1         0        //Chrono-Semeden Red Wing Gloves
4136     0       0       -1        12        12        -1        2         2         -1         0        //Semeden Red Wing Armor
5672     0       0       -1        12        12        -1        2         2         -1         0        //Semeden Red Wing Boots
3620     0       0       -1        12        12        -1        2         2         -1         0        //Serket Iris Helm
4644     0       0       -1        12        12        -1        2         2         -1         0        //Serket Iris Pants
4100     0       0       -1        12        12        -1        2         2         -1         0        //Evis-Sylion Bone Armor
5636     0       0       -1        12        12        -1        2         2         -1         0        //Evis-Sylion Bone Boots
3588     0       0       -1        12        12        -1        2         2         -1         0        //Sylion Bone Helm
5124     0       0       -1        12        12        -1        2         2         -1         0        //Sylion Bone Gloves
6668     0       0       -1        12        12        -1        2         2         -1         0        //Eplete-Tyr Pendant of Lightning
0031     0       0       -1        12        12        -1        2         2         -1         0        //Tyr Rune Blade
4628     0       0       -1        12        12        -1        2         2         -1         0        //Tyr Thunder Hawk Pants
5140     0       0       -1        12        12        -1        2         2         -1         0        //Tyr Thunder Hawk Gloves
5652     0       0       -1        12        12        -1        2         2         -1         0        //Tyr Thunder Hawk Boots
0032     0       0       -1        12        12        -1        2         2         -1         0        //Vega-Chamer Sacred Glove
4155     0       0       -1        12        12        -1        2         2         -1         0        //Vega-Chamer Sacred Fire Armor
4667     0       0       -1        12        12        -1        2         2         -1         0        //Vega-Chamer Sacred Fire Pants
3643     0       0       -1        12        12        -1        2         2         -1         0        //Vega Sacred Fire Helm
3585     0       0       -1        12        12        -1        2         2         -1         0        //Hyon-Vicious Dragon Helm
6678     0       0       -1        12        12        -1        2         2         -1         0        //Vicious-Ceto Ring of Earth
4097     0       0       -1        12        12        -1        2         2         -1         0        //Vicious Dragon Armor
4609     0       0       -1        12        12        -1        2         2         -1         0        //Vicious Dragon Pants
3589     0       0       -1        12        12        -1        2         2         -1         0        //Warrior-Anonymous Leather Helm
1025     0       0       -1        12        12        -1        2         2         -1         0        //Warrior morning Star
4613     0       0       -1        12        12        -1        2         2         -1         0        //Warrior-Anonumous Leather Pants
4101     0       0       -1        12        12        -1        2         2         -1         0        //Warrior Leather Armor
5637     0       0       -1        12        12        -1        2         2         -1         0        //Warrior-Anonumous Leather Boots
5125     0       0       -1        12        12        -1        2         2         -1         0        //Warrior Leather Gloves
4097     0       0       -1        12        12        -1        2         2         -1         0        //Warrior-Elune Ring of Ice
3679     0       0       -1        12        12        -1        2         2         -1         0        //Carthy Sate Set
4191     0       0       -1        12        12        -1        2         2         -1         0        //Camill Sate Set
4703     0       0       -1        12        12        -1        2         2         -1         0        //Carthy Sate Set
5215     0       0       -1        12        12        -1        2         2         -1         0        //Camill Sate Set
5727     0       0       -1        12        12        -1        2         2         -1         0        //Camill Sate Set
3678     0       0       -1        12        12        -1        2         2         -1         0        //Akhir Hirat Set
4190     0       0       -1        12        12        -1        2         2         -1         0        //Akhir Hirat Set
4702     0       0       -1        12        12        -1        2         2         -1         0        //Anas Hirat Set
5214     0       0       -1        12        12        -1        2         2         -1         0        //Anas Hirat Set
5726     0       0       -1        12        12        -1        2         2         -1         0        //Anas Hirat Set
3703     0       0       -1        12        12        -1        2         2         -1         0        //Emile Kenaz 
4215     0       0       -1        12        12        -1        2         2         -1         0        //Emile Kenaz 
4727     0       0       -1        12        12        -1        2         2         -1         0        //Arkajin Kenaz
5239     0       0       -1        12        12        -1        2         2         -1         0        //Arkajin Kenaz 
5751     0       0       -1        12        12        -1        2         2         -1         0        //Arkajin Kenaz 
3624     0       0       -1        12        12        -1        2         2         -1         0        //Red Wing (40) Slayer 
4136     0       0       -1        12        12        -1        2         2         -1         0        //Red Wing (40) Slayer
4648     0       0       -1        12        12        -1        2         2         -1         0        //Red Wing (40) Slayer
5160     0       0       -1        12        12        -1        2         2         -1         0        //Red Wing (40) Slayer
5672     0       0       -1        12        12        -1        2         2         -1         0        //Red Wing (40) Slayer
6204      0       0       *         *         *         *         *         *         *         *        //Seed (Fire)"     
6205      0       0       *         *         *         *         *         *         *         *        //Seed (Water)"    
6206      0       0       *         *         *         *         *         *         *         *        //Seed (Ice)"      
6207      0       0       *         *         *         *         *         *         *         *        //Seed (Wind)"     
6208      0       0       *         *         *         *         *         *         *         *        //Seed (Lightning)"
6209      0       0       *         *         *         *         *         *         *         *        //Seed (Earth)"    

end
