3
//Index   DropRate
0         10000
end

4
//Index   Section   SectionRate   MoneyAmount   OptionValue   DW   DK   FE   MG   DL   SU   RF   GL   RW   SL   GC
0         5         4500          1000          0             1    1    1    1    1    1    1    1    1    1    1 
0         6         3000          1000          4             1    1    1    1    1    1    1    1    1    1    1 
0         7         2500          1000          4             1    1    1    1    1    1    1    1    1    1    1 
end

 
5
//Index   Level   Grade   Option0   Option1   Option2   Option3   Option4   Option5   Option6   Duration  	Comment
6545    0       0       *         *         *         *         *         *         *         0          //Sphere Upgrade Rune
end

6
//Index   Level   Grade   Option0   Option1   Option2   Option3   Option4   Option5   Option6   Duration  	Comment
6545    0       0       *         *         *         *         *         *         *         0          //Sphere Upgrade Rune
6545    0       0       *         *         *         *         *         *         *         0          //Sphere Upgrade Rune
end

7
//Index   Level   Grade   Option0   Option1   Option2   Option3   Option4   Option5   Option6   Duration  	Comment
6545    0       0       *         *         *         *         *         *         *         0          //Sphere Upgrade Rune
6545    0       0       *         *         *         *         *         *         *         0          //Sphere Upgrade Rune
6545    0       0       *         *         *         *         *         *         *         0          //Sphere Upgrade Rune
end