3
//Index   DropRate
0         10000
1         10000
//2         10000
end

4
//Index   Section   SectionRate   MoneyAmount   OptionValue   DW   DK   FE   MG   DL   SU   RF   GL   RW   SL   GC
0         5         10000         100           32            1    1    1    1    1    1    1    1    1    1    1
1         6         10000         100           32            1    1    1    1    1    1	1    1    1    1    1
//2         7         10000         100           32            1    1    1    1    1    1	1    1    1    1    1
end

5
//Index   Level   Grade   Option0   Option1   Option2   Option3   Option4   Option5   Option6   Duration Comment 
14,486    0       0       *         *         *         *         *         *         *         0         //Ruud Box (1500)
end

6
//Index   Level   Grade   Option0   Option1   Option2   Option3   Option4   Option5   Option6   Duration  Comment
//Titan Armor - ok 380 dk
4653          0       0       *       *         13         *         *        *         18        0     
//Brave Armor - ok 380 dk
4654          0       0       *       *         13         *         *        *         18        0     
//Phantom  Armor - ok 380 mg
4655          0       0       *       *         13         *         *        *         18        0     
//Destroy  Armor - ok 380 mg
4656          0       0       *       *         13         *         *        *         18        0     
//Seraphim Armor - ok 380 elf
4657          0       0       *       *         13         *         *        *         18        0     
//Divine Armor - ok 380 elf
4658          0       0       *       *         13         *         *        *         18        0     
//Royal - ok 380 dl
4659          0       0       *       *         13         *         *        *         18        0     
//Hades ok 380 dw
4660          0       0       *       *         13         *         *        *         18        0     
//Fidelity ok 380 SL
4786          0       0       *       *         13         *         *        *         18        0     
//Eternal Wings 380 Sum
4652          0       0       *       *         13         *         *        *         18        0     
//Tigris ok 380 RF
4754          0       0       *       *         13         *         *        *         18        0     
//Grace ok 380 Lancer
4756          0       0       *       *         13         *         *        *         18        0     
//Rune Devine ok 380 RM
4728          0       0       *       *         13         *         *        *         18        0     
//Titan Gun Pant 380 GC
9,210         0       0       *       *         13         *         *        *         18        0   
end

 