3
//Index   DropRate
0         10000
end

4
//Index   Section   SectionRate   MoneyAmount   OptionValue   DW   DK   FE   MG   DL   SU   RF   GL   RW   SL   GC
0         5         8000          100000        0             1    1    1    1    1    1    1    1    1    1    1
0         6         1500          0             0             1    1    1    1    1    1    1    1    1    1    1
0         7         500           0             0             1    1    1    1    1    1    1    1    1    1    1 
end

5
//seção para zen
end

6
//Index   Level   Grade   Option0   Option1   Option2   Option3   Option4   Option5   Option6   Duration   Comment 
6344        0       0       *         *         *         *         *        *        20         0         //Muren's Book of Magic"              100
6345        0       0       *         *         *         *         *        *        20         0         //Scroll of Etramu"                   150
6346        0       0       *         *         *         *         *        *        20         0         //Lorencia Knights' Iron Shield"      150
6347        0       0       *         *         *         *         *        *        20         0         //Iron Shield of the Magic"           180
6348        0       0       *         *         *         *         *        *        20         0         //Hero Elixir"                        150
6349        0       0       *         *         *         *         *        *        20         0         //Brave Hero Elixir"                  180
6350        0       0       *         *         *         *         *        *        20         0         //Gladiator's Dagger"                 150
6351        0       0       *         *         *         *         *        *        20         0         //Merciless Gladiator's Dagger"       180
6361        0       0       *         *         *         *         *        *        20         0         //Thoughtful Sage's Jewel"            180             
end


7
//Index   Level   Grade   Option0   Option1   Option2   Option3   Option4   Option5   Option6   Duration   Comment
6289      0       0       *         *         *         *         *        *          *         0         //Mithrl              
end

 