//MapN   MapSX   MapSY   MapTX   MapTY   MinLevel   MaxLevel   MinReset   MaxReset   AccountLevel
0        1       1       255     255     1          *          *          *          0
1        1       1       255     255     1          *          *          *          0
2        1       1       255     255     1          *          *          *          0
3        1       1       255     255     1          *          *          *          0
4        1       1       255     255     50         *          *          *          0
6        1       1       255     255     50         *          *          *          0
7        1       1       255     255     50         *          *          *          0
8        1       1       255     255     140        *          *          *          0
10       1       1       255     255     160        *          *          *          0
30       1       1       255     255     150        *          *          *          0
33       1       1       255     255     150        *          *          *          0
34       1       1       255     255     1          *          *          *          0
37       1       1       255     255     160        *          *          *          0
38       1       1       255     255     160        *          *          *          0
41       1       1       255     255     300        *          *          *          0
42       1       1       255     255     300        *          *          *          0
51       1       1       255     255     1          *          *          *          0
56       1       1       255     255     380        *          *          *          0
57       1       1       255     255     380        *          *          *          0
80       1       1       255     255     280        *          *          *          0
81       1       1       255     255     380        *          *          *          0
91       1       1       255     255     300        *          *          *          0
95       1       1       255     255     300        *          *          *          0
100      1       1       255     255     300        *          *          *          0
110      1       1       255     255     300        *          *          *          0
112      1       1       255     255     400        *          *          *          0
113      1       1       255     255     700        *          *          *          0
116      1       1       255     255     770        *          *          *          0
117      1       1       255     255     770        *          *          *          0
118      1       1       255     255     770        *          *          *          0
119      1       1       255     255     770        *          *          *          0
120      1       1       255     255     770        *          *          *          0
122      1       1       255     255     800        *          *          *          0
123      1       1       255     255     850        *          *          *          0
124      1       1       255     255     850        *          *          *          0
125      1       1       255     255     850        *          *          *          0
126      1       1       255     255     850        *          *          *          0
127      1       1       255     255     850        *          *          *          0
128      1       1       255     255     1000       *          *          *          0
129      1       1       255     255     1020       *          *          *          0
130      1       1       255     255     1030       *          *          *          0
131      1       1       255     255     1050       *          *          *          0
132      1       1       255     255     1070       *          *          *          0
133      1       1       255     255     1100       *          *          *          0
end