//MinLevel   MaxLevel   MinMasterLevel   MaxMasterLevel   MinReset   MaxReset   MinMasterReset   MaxMasterReset   ExperienceRate
-1          -1          400              900             -1         -1         -1               -1                35
end
