//Index   NonPK   ViewRange   ExperienceRate   ItemDropRate   ExcItemDropRate   SetItemDropRate   SocketItemDrop   GuildWarEnable   HelperEnable   TradeEnable   PShopEnable   DuelEnable   GensBattle   Comment
0         *       12          100              200            1000              0                 0                1                1              1             1             1            0            //Lorencia
1         *       10          100              200            1000              0                 0                1                1              1             1             1            0            //Dungeon
2         *       12          100              200            1000              0                 0                1                1              1             1             1            0            //Devias
3         *       12          100              200            1000              0                 0                1                1              1             1             1            0            //Noria
4         *       10          100              200            1000              0                 0                1                1              1             1             1            0            //Lost Tower
6         *       10          100              200            1000              0                 0                1                1              1             1             1            0            //Arena
7         *       12          100              200            1000              0                 0                1                1              1             1             1            0            //Atlans
8         *       12          100              150            1000              0                 0                1                1              1             1             1            0            //Tarkan
9         *       08          100              100            1000              0                 0                0                1              0             0             0            0            //Devil Square 1
10        *       12          100              100            1000              0                 0                1                1              1             1             1            0            //Icarus
11        *       08          100              200            1000              0                 0                0                1              0             0             0            0            //Blood Castle 1
12        *       08          100              200            1000              1000              0                0                1              0             0             0            0            //Blood Castle 2
13        *       08          100              200            1000              1000              0                0                1              0             0             0            0            //Blood Castle 3
14        *       08          100              200            1000              1000              0                0                1              0             0             0            0            //Blood Castle 4
15        *       08          100              200            1000              1000              0                0                1              0             0             0            0            //Blood Castle 5
16        *       08          100              200            1000              1000              0                0                1              0             0             0            0            //Blood Castle 6
17        *       08          100              200            1000              1000              0                0                1              0             0             0            0            //Blood Castle 7
18        *       08          100              200            1000              1000              0                0                0              0             0             0            0            //Chaos Castle 1
19        *       08          100              200            1000              1000              0                0                0              0             0             0            0            //Chaos Castle 2
20        *       08          100              200            1000              1000              0                0                0              0             0             0            0            //Chaos Castle 3
21        *       08          100              200            1000              1000              0                0                0              0             0             0            0            //Chaos Castle 4
22        *       08          100              200            1000              1000              0                0                0              0             0             0            0            //Chaos Castle 5
23        *       08          100              200            1000              1000              0                0                0              0             0             0            0            //Chaos Castle 6
24        *       12          100              300            1000              0                 0                0                1              1             0             0            0            //Kalima 1
25        *       12          100              300            1000              0                 0                0                1              1             0             0            0            //Kalima 2
26        *       12          100              300            1000              0                 0                0                1              1             0             0            0            //Kalima 3
27        *       12          100              300            1000              0                 0                0                1              1             0             0            0            //Kalima 4
28        *       12          100              300            1000              0                 0                0                1              1             0             0            0            //Kalima 5
29        *       12          100              300            1000              0                 0                0                1              1             0             0            0            //Kalima 6
30        *       08          100              200            1000              1000              0                1                1              1             1             1            0            //Castle Siege
31        *       12          100              200            1000              1000              0                0                1              1             1             1            0            //Land of Trials
32        *       08          100              200            1000              0                 0                0                1              0             0             0            0            //Devil Square 2
33        *       12          100              100            1000              0                 0                1                1              1             1             1            0            //Aida
34        *       10          100              100            1000              0                 0                0                1              1             1             1            0            //Crywolf
36        *       12          100              100            1000              0                 0                0                1              1             0             0            0            //Kalima 7
37        *       12          100              100            1000              0                 0                1                1              1             1             1            0            //Kanturu 1
38        *       12          100              100            1000              0                 0                1                1              1             1             1            0            //Kanturu 2
39        *       12          100              100            1000              0                 0                0                1              1             0             0            0            //Kanturu 3
40        *       12          100              100            1000              0                 0                0                0              0             0             0            0            //Custom Arena
41        *       12          100              100            1000              0                 0                0                1              1             1             1            0            //Barracks
42        *       12          100              100            1000              0                 0                0                1              1             1             1            0            //Refuge
45        *       12          100              100            1000              0                 0                0                1              0             0             0            0            //Illusion Temple 1
46        *       12          100              100            1000              0                 0                0                1              0             0             0            0            //Illusion Temple 2
47        *       12          100              100            1000              0                 0                0                1              0             0             0            0            //Illusion Temple 3
48        *       12          100              100            1000              0                 0                0                1              0             0             0            0            //Illusion Temple 4
49        *       12          100              100            1000              0                 0                0                1              0             0             0            0            //Illusion Temple 5
50        *       12          100              100            1000              0                 0                0                1              0             0             0            0            //Illusion Temple 6
51        *       12          100              200            1000              0                 0                1                1              1             1             1            0            //Elbeland
52        *       08          100              100            1000              0                 0                0                1              0             0             0            0            //Blood Castle 8
53        *       08          100              300            1000              1000              0                0                0              0             0             0            0            //Chaos Castle 7
56        *       12          100              100            1000              0                 0                1                1              1             1             1            0            //Swamp of Calmness
57        *       12          100              100            1000              0                 1                1                1              1             1             1            0            //Raklion 1
58        *       12          100              100            1000              0                 1                0                1              1             0             0            0            //Raklion 2
62        *       12          100              100            1000              0                 0                0                1              1             1             0            0            //Santa Town
63        *       12          100              100            1000              0                 0                0                1              1             0             1            1            //Vulcanus
64        *       12          100              100            1000              0                 0                0                0              0             0             0            0            //Duel Arena
65        *       12          100              200            1000              0                 0                0                1              0             0             0            0            //Double Goer 1
66        *       12          100              200            1000              0                 0                0                1              0             0             0            0            //Double Goer 2
67        *       12          100              200            1000              0                 0                0                1              0             0             0            0            //Double Goer 3
68        *       12          100              200            1000              0                 0                0                1              0             0             0            0            //Double Goer 4
69        *       12          100              100            1000              0                 0                0                1              0             0             0            0            //Imperial Guardian 1
70        *       12          100              100            1000              0                 0                0                1              0             0             0            0            //Imperial Guardian 2
71        *       12          100              100            1000              0                 0                0                1              0             0             0            0            //Imperial Guardian 3
72        *       12          100              100            1000              0                 0                0                1              0             0             0            0            //Imperial Guardian 4
79        *       10          100              100            1000              0                 0                0                1              1             1             0            0            //Loren Market
80        *       12          100              100            1000              0                 0                1                1              1             1             1            0            //Karutan 1
81        *       12          100              100            1000              0                 0                1                1              1             1             1            0            //Karutan 2
82        *       12          100              100            1000              0                 0                0                1              0             0             0            0            //Double Goer Renew 1
83        *       12          100              100            1000              0                 0                0                1              0             0             0            0            //Double Goer Renew 2
84        *       12          100              100            1000              0                 0                0                1              0             0             0            0            //Double Goer Renew 3
85        *       12          100              100            1000              0                 0                0                1              0             0             0            0            //Double Goer Renew 4
86        *       12          100              100            1000              0                 0                0                1              0             0             0            0            //Double Goer Renew 5
87        *       12          100              100            1000              0                 0                0                1              0             0             0            0            //Double Goer Renew 6
88        *       12          100              100            1000              0                 0                0                1              0             0             0            0            //Double Goer Renew 7
89        *       12          100              100            1000              0                 0                0                1              0             0             0            0            //Double Goer Renew 8
90        *       12          100              100            1000              0                 0                0                1              0             0             0            0            //Double Goer Renew 9
91        *       12          100              100            1000              0                 0                1                1              1             1             1            0            //Acheron 1
92        *       10          100              100            1000              0                 0                0                1              1             0             0            0            //Acheron 2
95        *       12          100              100            1000              0                 0                1                1              1             1             1            0            //Deventer 1
96        *       10          100              100            1000              0                 0                0                1              1             0             0            0            //Deventer 2
97        *       08          100              100            1000              0                 0                0                0              0             0             0            0            //Chaos Castle Final
98        *       12          100              100            1000              0                 0                0                1              0             0             0            0            //Illusion Temple Final 1
99        *       12          100              100            1000              0                 0                0                1              0             0             0            0            //Illusion Temple Final 2
100       *       12          100              100            1000              0                 0                1                1              1             1             1            0            //Urk Mountain 1
101       *       10          100              100            1000              0                 0                1                1              1             1             1            0            //Urk Mountain 2
102       *       08          100              100            1000              0                 0                0                1              0             0             0            0            //Devil Square Final
110       *       12          100              100            1000              0                 0                1                1              1             1             1            0            //Nars
112       *       12          100              100            1000              0                 0                1                1              1             1             1            0            //Ferea
113       *       12          140              100            1000              0                 0                1                1              1             1             1            0            //Nixies Lake
114       *       12          100              100            1000              0                 0                0                0              0             0             0            0            //Instance Zone
115       *       10          100              100            1000              0                 0                0                1              0             0             0            0            //Labyrinth of Dimensions
//Index   NonPK   ViewRange   ExperienceRate   ItemDropRate   ExcItemDropRate   SetItemDropRate   SocketItemDrop   GuildWarEnable   HelperEnable   TradeEnable   PShopEnable   DuelEnable   GensBattle   Comment

116       *       12          190              100            1000              0                 0                1                1              1             1             1            0            //Deep Dungeon 1
117       *       12          750              100            1000              0                 0                1                1              1             1             1            0            //Deep Dungeon 2
118       *       12          1070             100            1000              0                 0                1                1              1             1             1            0            //Deep Dungeon 3
119       *       12          2070             100            1000              0                 0                1                1              1             1             1            0            //Deep Dungeon 4
120       *       12          2390             100            1000              0                 0                1                1              1             1             1            0            //Deep Dungeon 5
121       *       10          100              100            1000              0                 0                0                0              0             0             0            0            //Trial Area
122       *       12          4390             100            1000              0                 0                1                1              1             1             1            0            //Swamp of Darkness
123       *       12          7760             100            1000              0                 0                1                1              1             1             1            0            //Kubera Mine 1
124       *       12          7760             100            1000              0                 0                1                1              1             1             1            0            //Kubera Mine 2
125       *       12          7760             100            1000              0                 0                1                1              1             1             1            0            //Kubera Mine 3
126       *       12          7760             100            1000              0                 0                1                1              1             1             1            0            //Kubera Mine 4
127       *       12          7760             100            1000              0                 0                1                1              1             1             1            0            //Kubera Mine 5
128       *       12          10350            100            1000              0                 0                1                1              1             1             1            0            //Atlans Abyss 1
129       *       12          9410             100            1000              0                 0                1                1              1             1             1            0            //Atlans Abyss 2
130       *       12          10500            100            1000              0                 0                1                1              1             1             1            0            //Atlans Abyss 3
131       *       12          14600            100            1000              0                 0                1                1              1             1             1            0            //Scorched Canyon
//Index   NonPK   ViewRange   ExperienceRate   ItemDropRate   ExcItemDropRate   SetItemDropRate   SocketItemDrop   GuildWarEnable   HelperEnable   TradeEnable   PShopEnable   DuelEnable   GensBattle   Comment
132       *       12          16460            100            1000              0                 0                1                1              1             1             1            0            //Crismon Icarus
133       *       12          100              100            1000              0                 0                1                1              1             1             1            0            //Ardil Temple
end


//Calculo inicial do Jorgim
//116        190     
//117        750     
//118        1070    
//119        2070    
//120        2390    
//121        100     
//122        4390    
//123        7760    
//124        7760    
//125        7760    
//126        7760    
//127        7760    
//128        10350   
//129        9410    
//130        10500   
//131        14600   
//132        16460   
//133        100     