3
//Index   DropRate
0         10000
1         10000
2         10000
end

4
//Index   Section   SectionRate   MoneyAmount   OptionValue   DW   DK   FE   MG   DL   SU   RF   GL   RW   SL   GC
0         5         10000         100           32            1    1    1    1    1    1    1    1    1    1    1  
1         5         10000         100           32            1    1    1    1    1    1    1    1    1    1    1  
2         5         10000         100           32            1    1    1    1    1    1    1    1    1    1    1  
end
 
5
//Index   DropRate
14,402    0       0       *         *         *         *         *         *         *         0         //Ruud Box (100)
end