[13:21:08] GmServer is not responding so will be restarted in few seconds
[13:21:09] GmServer was unexpectedly terminated and will be restarted in few seconds
[13:21:13] GmServer is restarting
[13:21:21] GmServer was started
[18:08:21] 7 applications has been stopped
[18:08:30] ServerList.txt loaded
[18:08:39] System initilized
[18:08:39] ServerList.txt loaded
[18:08:41] ConnectServer was started
[18:08:43] JoinServer was started
[18:08:45] DataServer was started
[18:08:52] GameServer was started
[18:09:01] GameServerCS was started
[18:09:09] NoPvPServer was started
[18:09:10] 6 applications has been started
[18:49:58] 6 applications has been stopped
[18:50:05] ConnectServer was started
[18:50:09] JoinServer was started
[18:50:13] DataServer was started
[18:50:22] GameServer was started
[18:50:36] GameServerCS was started
[18:50:57] NoPvPServer was started
[18:50:59] 6 applications has been started
[19:00:25] 6 applications has been stopped
[19:14:20] System initilized
[19:14:20] ServerList.txt loaded
[19:14:40] ConnectServer was started
[19:14:42] JoinServer was started
[19:14:45] DataServer was started
[19:14:54] GameServer was started
[19:15:02] GameServerCS was started
[19:15:14] NoPvPServer was started
[19:15:15] 6 applications has been started
[19:15:37] 6 applications has been stopped
[19:16:13] ConnectServer was started
[19:16:15] JoinServer was started
[19:16:17] DataServer was started
[19:16:21] GameServer was started
[19:16:26] GameServerCS was started
[19:16:31] NoPvPServer was started
[19:16:32] 6 applications has been started
[23:27:49] 6 applications has been stopped
