[09:27:15] System initilized
[09:27:15] ServerList.txt loaded
[09:27:18] ConnectServer was started
[09:27:28] JoinServer was started
[09:27:47] DataServer was started
[09:27:50] GameServer was started
[09:27:54] GameServerCS was started
[09:27:55] 5 applications has been started
[10:08:59] 5 applications has been stopped
[10:09:02] ConnectServer was started
[10:09:12] JoinServer was started
[10:09:31] DataServer was started
[10:09:34] GameServer was started
[10:09:38] GameServerCS was started
[10:09:39] 5 applications has been started
[10:44:07] 5 applications has been stopped
[10:44:10] ConnectServer was started
[10:44:20] JoinServer was started
[10:44:39] DataServer was started
[10:44:43] GameServer was started
[10:44:46] GameServerCS was started
[10:44:47] 5 applications has been started
[10:52:23] 5 applications has been stopped
[10:52:27] ConnectServer was started
[10:52:37] JoinServer was started
[10:52:56] DataServer was started
[10:52:59] GameServer was started
[10:53:03] GameServerCS was started
[10:53:04] 5 applications has been started
[12:06:49] 5 applications has been stopped
[12:08:24] ConnectServer was started
[12:08:35] JoinServer was started
[12:08:53] DataServer was started
[12:08:57] GameServer was started
[12:09:02] GameServerCS was started
[12:09:03] 5 applications has been started
[12:13:12] 5 applications has been stopped
[12:13:19] ConnectServer was started
[12:13:29] JoinServer was started
[12:13:48] DataServer was started
[12:13:52] GameServer was started
[12:13:56] GameServerCS was started
[12:13:57] 5 applications has been started
[12:16:17] JoinServer is restarting
[12:16:26] JoinServer was started
[12:16:31] ConnectServer is restarting
[12:16:32] ConnectServer was started
[12:19:39] 5 applications has been stopped
[12:19:40] ConnectServer was started
[12:19:50] JoinServer was started
[12:20:09] DataServer was started
[12:20:13] GameServer was started
[12:20:17] GameServerCS was started
[12:20:18] 5 applications has been started
[12:22:44] 5 applications has been stopped
[12:22:46] ConnectServer was started
[12:22:56] JoinServer was started
[12:23:15] DataServer was started
[12:23:22] GameServer was started
[12:23:23] Could not initilize GameServerCS
[12:23:23] Não foi possível concluir a operação com êxito porque o arquivo contém um vírus ou software possivelmente indesejado
[12:23:23] 4 applications has been started
[12:23:24] GameServerCS was unexpectedly terminated and will be restarted in few seconds
[12:23:29] GameServerCS is restarting
[12:23:29] Could not initilize GameServerCS
[12:23:29] Não foi possível concluir a operação com êxito porque o arquivo contém um vírus ou software possivelmente indesejado
[12:23:30] GameServerCS was unexpectedly terminated and will be restarted in few seconds
[12:23:35] GameServerCS is restarting
[12:23:35] Could not initilize GameServerCS
[12:23:35] Não foi possível concluir a operação com êxito porque o arquivo contém um vírus ou software possivelmente indesejado
[12:23:36] GameServerCS was unexpectedly terminated and will be restarted in few seconds
[12:23:41] GameServerCS is restarting
[12:23:41] Could not initilize GameServerCS
[12:23:41] Não foi possível concluir a operação com êxito porque o arquivo contém um vírus ou software possivelmente indesejado
[12:23:42] GameServerCS was unexpectedly terminated and will be restarted in few seconds
[12:23:43] GameServer is not responding so will be restarted in few seconds
[12:23:44] GameServer was unexpectedly terminated and will be restarted in few seconds
[12:23:47] GameServerCS is restarting
[12:23:47] Could not initilize GameServerCS
[12:23:47] Não foi possível concluir a operação com êxito porque o arquivo contém um vírus ou software possivelmente indesejado
[12:23:48] GameServerCS was unexpectedly terminated and will be restarted in few seconds
[12:23:49] GameServer is restarting
[12:23:49] Could not initilize GameServer
[12:23:49] O sistema não pode encontrar o arquivo especificado
[12:23:50] GameServer was unexpectedly terminated and will be restarted in few seconds
[12:23:53] GameServerCS is restarting
[12:23:53] Could not initilize GameServerCS
[12:23:53] Não foi possível concluir a operação com êxito porque o arquivo contém um vírus ou software possivelmente indesejado
[12:23:54] GameServer is restarting
[12:23:54] Could not initilize GameServer
[12:23:54] O sistema não pode encontrar o arquivo especificado
[12:23:54] GameServerCS was unexpectedly terminated and will be restarted in few seconds
[12:23:55] GameServer was unexpectedly terminated and will be restarted in few seconds
[12:23:59] GameServer is restarting
[12:23:59] Could not initilize GameServer
[12:23:59] O sistema não pode encontrar o arquivo especificado
[12:23:59] GameServerCS is restarting
[12:23:59] Could not initilize GameServerCS
[12:23:59] Não foi possível concluir a operação com êxito porque o arquivo contém um vírus ou software possivelmente indesejado
[12:24:00] GameServer was unexpectedly terminated and will be restarted in few seconds
[12:24:00] GameServerCS was unexpectedly terminated and will be restarted in few seconds
[12:24:04] GameServer is restarting
[12:24:04] Could not initilize GameServer
[12:24:04] O sistema não pode encontrar o arquivo especificado
[12:24:05] GameServer was unexpectedly terminated and will be restarted in few seconds
[12:24:05] GameServerCS is restarting
[12:24:05] Could not initilize GameServerCS
[12:24:05] O sistema não pode encontrar o arquivo especificado
[12:24:06] GameServerCS was unexpectedly terminated and will be restarted in few seconds
[12:24:09] GameServer is restarting
[12:24:09] Could not initilize GameServer
[12:24:09] O sistema não pode encontrar o arquivo especificado
[12:24:10] GameServer was unexpectedly terminated and will be restarted in few seconds
[12:24:10] GameServerCS is restarting
[12:24:10] Could not initilize GameServerCS
[12:24:10] O sistema não pode encontrar o arquivo especificado
[12:24:11] GameServerCS was unexpectedly terminated and will be restarted in few seconds
[12:24:14] GameServer is restarting
[12:24:14] Could not initilize GameServer
[12:24:14] O sistema não pode encontrar o arquivo especificado
[12:24:15] GameServer was unexpectedly terminated and will be restarted in few seconds
[12:24:16] GameServerCS is restarting
[12:24:16] Could not initilize GameServerCS
[12:24:16] O sistema não pode encontrar o arquivo especificado
[12:24:17] GameServerCS was unexpectedly terminated and will be restarted in few seconds
[12:24:20] GameServer is restarting
[12:24:20] Could not initilize GameServer
[12:24:20] O sistema não pode encontrar o arquivo especificado
[12:24:21] GameServer was unexpectedly terminated and will be restarted in few seconds
[12:24:22] GameServerCS is restarting
[12:24:22] Could not initilize GameServerCS
[12:24:22] O sistema não pode encontrar o arquivo especificado
[12:24:23] GameServerCS was unexpectedly terminated and will be restarted in few seconds
[12:24:25] GameServer is restarting
[12:24:25] Could not initilize GameServer
[12:24:25] O sistema não pode encontrar o arquivo especificado
[12:24:26] GameServer was unexpectedly terminated and will be restarted in few seconds
[12:24:27] GameServerCS is restarting
[12:24:27] Could not initilize GameServerCS
[12:24:27] O sistema não pode encontrar o arquivo especificado
[12:24:28] GameServerCS was unexpectedly terminated and will be restarted in few seconds
[12:24:30] GameServer is restarting
[12:24:30] Could not initilize GameServer
[12:24:30] O sistema não pode encontrar o arquivo especificado
[12:24:31] GameServer was unexpectedly terminated and will be restarted in few seconds
[12:24:32] GameServerCS is restarting
[12:24:32] Could not initilize GameServerCS
[12:24:32] O sistema não pode encontrar o arquivo especificado
[12:24:33] GameServerCS was unexpectedly terminated and will be restarted in few seconds
[12:24:36] GameServer is restarting
[12:24:36] Could not initilize GameServer
[12:24:36] O sistema não pode encontrar o arquivo especificado
[12:24:37] GameServer was unexpectedly terminated and will be restarted in few seconds
[12:24:38] GameServerCS is restarting
[12:24:38] Could not initilize GameServerCS
[12:24:38] O sistema não pode encontrar o arquivo especificado
[12:24:39] GameServerCS was unexpectedly terminated and will be restarted in few seconds
[12:24:42] GameServer is restarting
[12:24:42] Could not initilize GameServer
[12:24:42] O sistema não pode encontrar o arquivo especificado
[12:24:43] GameServer was unexpectedly terminated and will be restarted in few seconds
[12:24:44] GameServerCS is restarting
[12:24:44] Could not initilize GameServerCS
[12:24:44] O sistema não pode encontrar o arquivo especificado
[12:24:45] GameServerCS was unexpectedly terminated and will be restarted in few seconds
[12:24:47] GameServer is restarting
[12:24:47] Could not initilize GameServer
[12:24:47] O sistema não pode encontrar o arquivo especificado
[12:24:48] GameServer was unexpectedly terminated and will be restarted in few seconds
[12:24:50] GameServerCS is restarting
[12:24:50] Could not initilize GameServerCS
[12:24:50] O sistema não pode encontrar o arquivo especificado
[12:24:51] GameServerCS was unexpectedly terminated and will be restarted in few seconds
[12:24:53] GameServer is restarting
[12:24:53] Could not initilize GameServer
[12:24:53] O sistema não pode encontrar o arquivo especificado
[12:24:54] GameServer was unexpectedly terminated and will be restarted in few seconds
[12:24:56] GameServerCS is restarting
[12:24:56] Could not initilize GameServerCS
[12:24:56] O sistema não pode encontrar o arquivo especificado
[12:24:57] GameServerCS was unexpectedly terminated and will be restarted in few seconds
[12:24:58] GameServer is restarting
[12:24:58] Could not initilize GameServer
[12:24:58] O sistema não pode encontrar o arquivo especificado
[12:25:08] GameServer was unexpectedly terminated and will be restarted in few seconds
[12:25:08] GameServerCS is restarting
[12:25:08] Could not initilize GameServerCS
[12:25:08] O sistema não pode encontrar o arquivo especificado
[12:25:52] System initilized
[12:25:52] ServerList.txt loaded
[12:25:57] ConnectServer was started
[12:26:08] JoinServer was started
[12:26:27] DataServer was started
[12:26:28] Could not initilize GameServer
[12:26:28] O sistema não pode encontrar o arquivo especificado
[12:26:28] Could not initilize GameServerCS
[12:26:28] GameServer was unexpectedly terminated and will be restarted in few seconds
[12:26:28] GameServerCS was unexpectedly terminated and will be restarted in few seconds
[12:26:28] O sistema não pode encontrar o arquivo especificado
[12:26:28] 3 applications has been started
[12:26:33] GameServer is restarting
[12:26:33] Could not initilize GameServer
[12:26:33] O sistema não pode encontrar o arquivo especificado
[12:26:33] GameServerCS is restarting
[12:26:33] Could not initilize GameServerCS
[12:26:33] O sistema não pode encontrar o arquivo especificado
[12:26:34] GameServer was unexpectedly terminated and will be restarted in few seconds
[12:26:34] GameServerCS was unexpectedly terminated and will be restarted in few seconds
[12:26:39] GameServer is restarting
[12:26:39] Could not initilize GameServer
[12:26:39] O sistema não pode encontrar o arquivo especificado
[12:26:39] GameServerCS is restarting
[12:26:39] Could not initilize GameServerCS
[12:26:39] O sistema não pode encontrar o arquivo especificado
[12:26:40] GameServer was unexpectedly terminated and will be restarted in few seconds
[12:26:40] GameServerCS was unexpectedly terminated and will be restarted in few seconds
[12:26:44] 5 applications has been stopped
[12:34:15] System initilized
[12:34:15] ServerList.txt loaded
[12:34:17] ConnectServer was started
[12:34:27] JoinServer was started
[12:34:45] DataServer was started
[12:34:49] GameServer was started
[12:34:53] GameServerCS was started
[12:34:54] 5 applications has been started
[12:35:51] 5 applications has been stopped
[12:35:54] ConnectServer was started
[12:36:05] JoinServer was started
[12:36:24] DataServer was started
[12:36:29] GameServer was started
[12:36:32] GameServerCS was started
[12:36:34] 5 applications has been started
[12:43:31] 5 applications has been stopped
[12:43:34] ConnectServer was started
[12:43:44] JoinServer was started
[12:44:03] DataServer was started
[12:44:06] GameServer was started
[12:44:10] GameServerCS was started
[12:44:11] 5 applications has been started
[13:03:18] 5 applications has been stopped
[13:03:19] ConnectServer was started
[13:03:30] JoinServer was started
[13:03:48] DataServer was started
[13:03:52] GameServer was started
[13:03:56] GameServerCS was started
[13:03:57] 5 applications has been started
[13:18:38] 5 applications has been stopped
[13:18:41] ConnectServer was started
[13:18:51] JoinServer was started
[13:19:09] DataServer was started
[13:19:13] GameServer was started
[13:19:17] GameServerCS was started
[13:19:18] 5 applications has been started
[13:23:35] ConnectServer is not responding so will be restarted in few seconds
[13:23:35] JoinServer is not responding so will be restarted in few seconds
[13:23:35] DataServer is not responding so will be restarted in few seconds
[13:23:35] GameServer is not responding so will be restarted in few seconds
[13:23:35] GameServerCS is not responding so will be restarted in few seconds
[13:23:36] ConnectServer was unexpectedly terminated and will be restarted in few seconds
[13:23:36] JoinServer was unexpectedly terminated and will be restarted in few seconds
[13:23:36] DataServer was unexpectedly terminated and will be restarted in few seconds
[13:23:36] GameServer was unexpectedly terminated and will be restarted in few seconds
[13:23:36] GameServerCS was unexpectedly terminated and will be restarted in few seconds
[13:23:40] ConnectServer is restarting
[13:23:41] ConnectServer was started
[13:23:41] JoinServer is restarting
[13:25:08] System initilized
[13:25:08] ServerList.txt loaded
[13:25:10] ConnectServer was started
[13:25:12] JoinServer was started
[13:25:14] DataServer was started
[13:25:16] GameServer was started
[13:25:18] GameServerCS was started
[13:25:19] 5 applications has been started
[13:25:59] DataServer is not responding so will be restarted in few seconds
[13:26:00] JoinServer is not responding so will be restarted in few seconds
[13:26:00] DataServer was unexpectedly terminated and will be restarted in few seconds
[13:26:01] JoinServer was unexpectedly terminated and will be restarted in few seconds
[13:26:02] GameServer is not responding so will be restarted in few seconds
[13:26:03] GameServer was unexpectedly terminated and will be restarted in few seconds
[13:26:05] DataServer is restarting
[13:26:06] DataServer was started
[13:26:06] GameServerCS is not responding so will be restarted in few seconds
[13:26:06] JoinServer is restarting
[13:26:07] JoinServer was started
[13:26:07] GameServerCS was unexpectedly terminated and will be restarted in few seconds
[13:26:07] GameServer is restarting
[13:26:08] GameServer was started
[13:26:10] 5 applications has been stopped
[18:21:16] System initilized
[18:21:16] ServerList.txt loaded
[18:21:19] ConnectServer was started
[18:21:30] JoinServer was started
[18:21:48] DataServer was started
[18:21:53] GameServer was started
[18:21:57] GameServerCS was started
[18:21:58] 5 applications has been started
[18:26:28] 5 applications has been stopped
[18:26:31] ConnectServer was started
[18:26:41] JoinServer was started
[18:26:59] DataServer was started
[18:27:03] GameServer was started
[18:27:07] GameServerCS was started
[18:27:08] 5 applications has been started
[18:28:49] 5 applications has been stopped
[18:28:51] ConnectServer was started
[18:29:01] JoinServer was started
[18:29:19] DataServer was started
[18:29:23] GameServer was started
[18:29:27] GameServerCS was started
[18:29:28] 5 applications has been started
[20:16:25] ConnectServer is not responding so will be restarted in few seconds
[20:16:25] JoinServer is not responding so will be restarted in few seconds
[20:16:25] DataServer is not responding so will be restarted in few seconds
[20:16:25] GameServer is not responding so will be restarted in few seconds
[20:16:25] GameServerCS is not responding so will be restarted in few seconds
[20:16:26] ConnectServer was unexpectedly terminated and will be restarted in few seconds
[20:16:26] JoinServer was unexpectedly terminated and will be restarted in few seconds
[20:16:26] DataServer was unexpectedly terminated and will be restarted in few seconds
[20:16:26] GameServer was unexpectedly terminated and will be restarted in few seconds
[20:16:26] GameServerCS was unexpectedly terminated and will be restarted in few seconds
[20:16:31] ConnectServer is restarting
[20:16:32] ConnectServer was started
[20:16:32] JoinServer is restarting
