[18:02:46] 6 applications has been stopped
[18:02:49] ConnectServer was started
[18:02:51] JoinServer was started
[18:02:52] DataServer was started
[18:02:56] GameServer was started
[18:03:01] GameServerCS was started
[18:03:05] NoPvPServer was started
[18:03:06] 6 applications has been started
