[12:20:45] 5 applications has been stopped
[12:20:47] ConnectServer was started
[12:20:48] JoinServer was started
[12:20:50] DataServer was started
[12:20:53] GameServer was started
[12:20:57] GameServerCS was started
[12:20:58] 5 applications has been started
[16:29:50] GameServer is not responding so will be restarted in few seconds
[16:29:51] GameServer was unexpectedly terminated and will be restarted in few seconds
[16:29:56] GameServer is restarting
[16:29:58] GameServer was started
[17:01:22] 5 applications has been stopped
[17:02:21] ServerList.txt loaded
[17:02:34] System initilized
[17:02:34] ServerList.txt loaded
[17:02:43] ConnectServer was started
[17:02:45] JoinServer was started
[17:02:46] DataServer was started
[17:02:49] GameServer was started
[17:02:53] GameServerCS was started
[17:02:56] GMServer was started
[17:02:57] 6 applications has been started
[17:05:03] 6 applications has been stopped
[17:05:05] ConnectServer was started
[17:05:07] JoinServer was started
[17:05:09] DataServer was started
[17:05:12] GameServer was started
[17:05:15] GameServerCS was started
[17:05:18] GMServer was started
[17:05:19] 6 applications has been started
[17:06:46] 6 applications has been stopped
[17:06:48] ConnectServer was started
[17:06:49] JoinServer was started
[17:06:51] DataServer was started
[17:06:54] GameServer was started
[17:06:57] GameServerCS was started
[17:07:01] GMServer was started
[17:07:02] 6 applications has been started
[17:08:00] 6 applications has been stopped
[17:08:03] ConnectServer was started
[17:08:04] JoinServer was started
[17:08:06] DataServer was started
[17:08:09] GameServer was started
[17:08:12] GameServerCS was started
[17:08:15] GMServer was started
[17:08:16] 6 applications has been started
[17:08:21] 6 applications has been stopped
[17:08:22] ConnectServer was started
[17:08:24] JoinServer was started
[17:08:25] DataServer was started
[17:08:28] GameServer was started
[17:08:32] GameServerCS was started
[17:08:55] GMServer was started
[17:08:56] 6 applications has been started
[17:09:57] 6 applications has been stopped
[17:10:00] ConnectServer was started
[17:10:01] JoinServer was started
[17:10:03] DataServer was started
[17:10:06] GameServer was started
[17:10:09] GameServerCS was started
[17:10:12] GMServer was started
[17:10:13] 6 applications has been started
[17:11:03] 6 applications has been stopped
[17:11:06] ConnectServer was started
[17:11:07] JoinServer was started
[17:11:09] DataServer was started
[17:11:12] GameServer was started
[17:11:15] GameServerCS was started
[17:11:18] GMServer was started
[17:11:19] 6 applications has been started
[17:12:05] 6 applications has been stopped
[17:12:08] ConnectServer was started
[17:12:10] JoinServer was started
[17:12:11] DataServer was started
[17:12:14] GameServer was started
[17:12:18] GameServerCS was started
[17:12:21] GMServer was started
[17:12:22] 6 applications has been started
[17:13:14] 6 applications has been stopped
[17:13:17] ConnectServer was started
[17:13:19] JoinServer was started
[17:13:20] DataServer was started
[17:13:23] GameServer was started
[17:13:26] GameServerCS was started
[17:13:29] GMServer was started
[17:13:30] 6 applications has been started
[17:14:19] 6 applications has been stopped
[17:14:21] ConnectServer was started
[17:14:23] JoinServer was started
[17:14:24] DataServer was started
[17:14:27] GameServer was started
[17:14:30] GameServerCS was started
[17:14:33] GMServer was started
[17:14:34] 6 applications has been started
[17:15:37] 6 applications has been stopped
[17:15:40] ConnectServer was started
[17:15:41] JoinServer was started
[17:15:43] DataServer was started
[17:15:46] GameServer was started
[17:15:49] GameServerCS was started
[17:15:52] GMServer was started
[17:15:53] 6 applications has been started
[17:16:00] 6 applications has been stopped
[17:17:40] ConnectServer was started
[17:17:42] JoinServer was started
[17:17:43] DataServer was started
[17:17:47] GameServer was started
[17:17:50] GameServerCS was started
[17:17:53] GMServer was started
[17:17:54] 6 applications has been started
[17:19:43] 6 applications has been stopped
[17:19:45] ConnectServer was started
[17:19:46] JoinServer was started
[17:19:48] DataServer was started
[17:19:51] GameServer was started
[17:19:54] GameServerCS was started
[17:19:57] GMServer was started
[17:19:58] 6 applications has been started
[17:20:59] 6 applications has been stopped
[17:21:01] ConnectServer was started
[17:21:02] JoinServer was started
[17:21:04] DataServer was started
[17:21:07] GameServer was started
[17:21:10] GameServerCS was started
[17:21:13] GMServer was started
[17:21:14] 6 applications has been started
[17:24:42] 6 applications has been stopped
[17:24:43] ConnectServer was started
[17:24:44] JoinServer was started
[17:24:46] DataServer was started
[17:24:49] GameServer was started
[17:24:52] GameServerCS was started
[17:24:55] GMServer was started
[17:24:56] 6 applications has been started
[17:25:41] 6 applications has been stopped
[17:25:43] ConnectServer was started
[17:25:45] JoinServer was started
[17:25:46] DataServer was started
[17:25:49] GameServer was started
[17:25:52] GameServerCS was started
[17:25:56] GMServer was started
[17:25:57] 6 applications has been started
[17:26:22] 6 applications has been stopped
[17:26:25] ConnectServer was started
[17:26:26] JoinServer was started
[17:26:28] DataServer was started
[17:26:31] GameServer was started
[17:26:34] GameServerCS was started
[17:26:37] GMServer was started
[17:26:38] 6 applications has been started
[17:31:21] 6 applications has been stopped
[17:32:11] ServerList.txt loaded
[17:32:18] System initilized
[17:32:18] ServerList.txt loaded
[17:32:19] ConnectServer was started
[17:32:21] JoinServer was started
[17:32:22] DataServer was started
[17:32:26] GameServer was started
[17:32:29] GameServerCS was started
[17:32:32] GMServer was started
[17:32:35] NoPvPServer was started
[17:32:36] 7 applications has been started
[17:32:44] NoPvPServer is not responding so will be restarted in few seconds
[17:32:45] NoPvPServer was unexpectedly terminated and will be restarted in few seconds
[17:32:50] NoPvPServer is restarting
[17:32:52] NoPvPServer was started
[17:34:08] NoPvPServer is not responding so will be restarted in few seconds
[17:34:09] NoPvPServer was unexpectedly terminated and will be restarted in few seconds
[17:34:14] NoPvPServer is restarting
[17:34:16] NoPvPServer was started
[17:36:32] NoPvPServer is closing
[17:36:32] MainForm was closed
[17:36:37] 7 applications has been stopped
[17:37:20] ServerList.txt loaded
[17:37:26] System initilized
[17:37:26] ServerList.txt loaded
[17:37:28] ConnectServer was started
[17:37:29] JoinServer was started
[17:37:31] DataServer was started
[17:37:34] GameServer was started
[17:37:37] GameServerCS was started
[17:37:40] NoPvPServer was started
[17:37:43] GmServer was started
[17:37:44] 7 applications has been started
